%YAML 1.1
%TAG !u! tag:unity3d.com,2011:
--- !u!1 &17630083423225754
GameObject:
  m_ObjectHideFlags: 0
  m_CorrespondingSourceObject: {fileID: 0}
  m_PrefabInstance: {fileID: 0}
  m_PrefabAsset: {fileID: 0}
  serializedVersion: 6
  m_Component:
  - component: {fileID: 4337022231011773713}
  - component: {fileID: 7184904630173008586}
  - component: {fileID: 2278234263237208666}
  - component: {fileID: 3124414468084294164}
  - component: {fileID: 6152943213296740300}
  m_Layer: 0
  m_Name: Button_RED 1
  m_TagString: Untagged
  m_Icon: {fileID: 0}
  m_NavMeshLayer: 0
  m_StaticEditorFlags: 0
  m_IsActive: 1
--- !u!4 &4337022231011773713
Transform:
  m_ObjectHideFlags: 0
  m_CorrespondingSourceObject: {fileID: 0}
  m_PrefabInstance: {fileID: 0}
  m_PrefabAsset: {fileID: 0}
  m_GameObject: {fileID: 17630083423225754}
  m_LocalRotation: {x: 0, y: 0, z: 0, w: 1}
  m_LocalPosition: {x: 57.87, y: 0.02, z: 0.07}
  m_LocalScale: {x: 0.5, y: 0.2, z: 0.5}
  m_Children:
  - {fileID: 7120039923820782966}
  - {fileID: 3954774578235739431}
  m_Father: {fileID: 0}
  m_RootOrder: 0
  m_LocalEulerAnglesHint: {x: 0, y: 0, z: 0}
--- !u!114 &7184904630173008586
MonoBehaviour:
  m_ObjectHideFlags: 0
  m_CorrespondingSourceObject: {fileID: 0}
  m_PrefabInstance: {fileID: 0}
  m_PrefabAsset: {fileID: 0}
  m_GameObject: {fileID: 17630083423225754}
  m_Enabled: 1
  m_EditorHideFlags: 0
  m_Script: {fileID: 11500000, guid: 8233d90336aea43098adf6dbabd606a2, type: 3}
  m_Name: 
  m_EditorClassIdentifier: 
  m_MeshFormatVersion: 1
  m_Faces:
  - m_Indexes: 000000000100000002000000010000000300000002000000
    m_SmoothingGroup: 1
    m_Uv:
      m_UseWorldSpace: 0
      m_FlipU: 0
      m_FlipV: 0
      m_SwapUV: 0
      m_Fill: 1
      m_Scale: {x: 1, y: 1}
      m_Offset: {x: 0, y: 0}
      m_Rotation: 0
      m_Anchor: 9
    m_Material: {fileID: 0}
    m_SubmeshIndex: 0
    m_ManualUV: 0
    elementGroup: -1
    m_TextureGroup: -1
  - m_Indexes: 040000000500000006000000050000000700000006000000
    m_SmoothingGroup: 1
    m_Uv:
      m_UseWorldSpace: 0
      m_FlipU: 0
      m_FlipV: 0
      m_SwapUV: 0
      m_Fill: 1
      m_Scale: {x: 1, y: 1}
      m_Offset: {x: 0, y: 0}
      m_Rotation: 0
      m_Anchor: 9
    m_Material: {fileID: 0}
    m_SubmeshIndex: 0
    m_ManualUV: 0
    elementGroup: -1
    m_TextureGroup: -1
  - m_Indexes: 08000000090000000a000000090000000b0000000a000000
    m_SmoothingGroup: 1
    m_Uv:
      m_UseWorldSpace: 0
      m_FlipU: 0
      m_FlipV: 0
      m_SwapUV: 0
      m_Fill: 1
      m_Scale: {x: 1, y: 1}
      m_Offset: {x: 0, y: 0}
      m_Rotation: 0
      m_Anchor: 9
    m_Material: {fileID: 0}
    m_SubmeshIndex: 0
    m_ManualUV: 0
    elementGroup: -1
    m_TextureGroup: -1
  - m_Indexes: 0c0000000d0000000e0000000d0000000f0000000e000000
    m_SmoothingGroup: 1
    m_Uv:
      m_UseWorldSpace: 0
      m_FlipU: 0
      m_FlipV: 0
      m_SwapUV: 0
      m_Fill: 1
      m_Scale: {x: 1, y: 1}
      m_Offset: {x: 0, y: 0}
      m_Rotation: 0
      m_Anchor: 9
    m_Material: {fileID: 0}
    m_SubmeshIndex: 0
    m_ManualUV: 0
    elementGroup: -1
    m_TextureGroup: -1
  - m_Indexes: 100000001100000012000000110000001300000012000000
    m_SmoothingGroup: 1
    m_Uv:
      m_UseWorldSpace: 0
      m_FlipU: 0
      m_FlipV: 0
      m_SwapUV: 0
      m_Fill: 1
      m_Scale: {x: 1, y: 1}
      m_Offset: {x: 0, y: 0}
      m_Rotation: 0
      m_Anchor: 9
    m_Material: {fileID: 0}
    m_SubmeshIndex: 0
    m_ManualUV: 0
    elementGroup: -1
    m_TextureGroup: -1
  - m_Indexes: 140000001500000016000000150000001700000016000000
    m_SmoothingGroup: 1
    m_Uv:
      m_UseWorldSpace: 0
      m_FlipU: 0
      m_FlipV: 0
      m_SwapUV: 0
      m_Fill: 1
      m_Scale: {x: 1, y: 1}
      m_Offset: {x: 0, y: 0}
      m_Rotation: 0
      m_Anchor: 9
    m_Material: {fileID: 0}
    m_SubmeshIndex: 0
    m_ManualUV: 0
    elementGroup: -1
    m_TextureGroup: -1
  - m_Indexes: 18000000190000001a000000190000001b0000001a000000
    m_SmoothingGroup: 1
    m_Uv:
      m_UseWorldSpace: 0
      m_FlipU: 0
      m_FlipV: 0
      m_SwapUV: 0
      m_Fill: 1
      m_Scale: {x: 1, y: 1}
      m_Offset: {x: 0, y: 0}
      m_Rotation: 0
      m_Anchor: 9
    m_Material: {fileID: 0}
    m_SubmeshIndex: 0
    m_ManualUV: 0
    elementGroup: -1
    m_TextureGroup: -1
  - m_Indexes: 1c0000001d0000001e0000001d0000001f0000001e000000
    m_SmoothingGroup: 1
    m_Uv:
      m_UseWorldSpace: 0
      m_FlipU: 0
      m_FlipV: 0
      m_SwapUV: 0
      m_Fill: 1
      m_Scale: {x: 1, y: 1}
      m_Offset: {x: 0, y: 0}
      m_Rotation: 0
      m_Anchor: 9
    m_Material: {fileID: 0}
    m_SubmeshIndex: 0
    m_ManualUV: 0
    elementGroup: -1
    m_TextureGroup: -1
  - m_Indexes: 200000002100000022000000210000002300000022000000
    m_SmoothingGroup: 1
    m_Uv:
      m_UseWorldSpace: 0
      m_FlipU: 0
      m_FlipV: 0
      m_SwapUV: 0
      m_Fill: 1
      m_Scale: {x: 1, y: 1}
      m_Offset: {x: 0, y: 0}
      m_Rotation: 0
      m_Anchor: 9
    m_Material: {fileID: 0}
    m_SubmeshIndex: 0
    m_ManualUV: 0
    elementGroup: -1
    m_TextureGroup: -1
  - m_Indexes: 240000002500000026000000250000002700000026000000
    m_SmoothingGroup: 1
    m_Uv:
      m_UseWorldSpace: 0
      m_FlipU: 0
      m_FlipV: 0
      m_SwapUV: 0
      m_Fill: 1
      m_Scale: {x: 1, y: 1}
      m_Offset: {x: 0, y: 0}
      m_Rotation: 0
      m_Anchor: 9
    m_Material: {fileID: 0}
    m_SubmeshIndex: 0
    m_ManualUV: 0
    elementGroup: -1
    m_TextureGroup: -1
  - m_Indexes: 28000000290000002a000000290000002b0000002a000000
    m_SmoothingGroup: 1
    m_Uv:
      m_UseWorldSpace: 0
      m_FlipU: 0
      m_FlipV: 0
      m_SwapUV: 0
      m_Fill: 1
      m_Scale: {x: 1, y: 1}
      m_Offset: {x: 0, y: 0}
      m_Rotation: 0
      m_Anchor: 9
    m_Material: {fileID: 0}
    m_SubmeshIndex: 0
    m_ManualUV: 0
    elementGroup: -1
    m_TextureGroup: -1
  - m_Indexes: 2c0000002d0000002e0000002d0000002f0000002e000000
    m_SmoothingGroup: 1
    m_Uv:
      m_UseWorldSpace: 0
      m_FlipU: 0
      m_FlipV: 0
      m_SwapUV: 0
      m_Fill: 1
      m_Scale: {x: 1, y: 1}
      m_Offset: {x: 0, y: 0}
      m_Rotation: 0
      m_Anchor: 9
    m_Material: {fileID: 0}
    m_SubmeshIndex: 0
    m_ManualUV: 0
    elementGroup: -1
    m_TextureGroup: -1
  - m_Indexes: 320000003100000030000000
    m_SmoothingGroup: 0
    m_Uv:
      m_UseWorldSpace: 0
      m_FlipU: 0
      m_FlipV: 0
      m_SwapUV: 0
      m_Fill: 1
      m_Scale: {x: 1, y: 1}
      m_Offset: {x: 0, y: 0}
      m_Rotation: 0
      m_Anchor: 9
    m_Material: {fileID: 2100000, guid: 31321ba15b8f8eb4c954353edc038b1d, type: 2}
    m_SubmeshIndex: 0
    m_ManualUV: 0
    elementGroup: 0
    m_TextureGroup: -1
  - m_Indexes: 380000003700000036000000
    m_SmoothingGroup: 0
    m_Uv:
      m_UseWorldSpace: 0
      m_FlipU: 0
      m_FlipV: 0
      m_SwapUV: 0
      m_Fill: 1
      m_Scale: {x: 1, y: 1}
      m_Offset: {x: 0, y: 0}
      m_Rotation: 0
      m_Anchor: 9
    m_Material: {fileID: 2100000, guid: 31321ba15b8f8eb4c954353edc038b1d, type: 2}
    m_SubmeshIndex: 0
    m_ManualUV: 0
    elementGroup: 0
    m_TextureGroup: -1
  - m_Indexes: 3e0000003d0000003c000000
    m_SmoothingGroup: 0
    m_Uv:
      m_UseWorldSpace: 0
      m_FlipU: 0
      m_FlipV: 0
      m_SwapUV: 0
      m_Fill: 1
      m_Scale: {x: 1, y: 1}
      m_Offset: {x: 0, y: 0}
      m_Rotation: 0
      m_Anchor: 9
    m_Material: {fileID: 2100000, guid: 31321ba15b8f8eb4c954353edc038b1d, type: 2}
    m_SubmeshIndex: 0
    m_ManualUV: 0
    elementGroup: 0
    m_TextureGroup: -1
  - m_Indexes: 440000004300000042000000
    m_SmoothingGroup: 0
    m_Uv:
      m_UseWorldSpace: 0
      m_FlipU: 0
      m_FlipV: 0
      m_SwapUV: 0
      m_Fill: 1
      m_Scale: {x: 1, y: 1}
      m_Offset: {x: 0, y: 0}
      m_Rotation: 0
      m_Anchor: 9
    m_Material: {fileID: 2100000, guid: 31321ba15b8f8eb4c954353edc038b1d, type: 2}
    m_SubmeshIndex: 0
    m_ManualUV: 0
    elementGroup: 0
    m_TextureGroup: -1
  - m_Indexes: 4a0000004900000048000000
    m_SmoothingGroup: 0
    m_Uv:
      m_UseWorldSpace: 0
      m_FlipU: 0
      m_FlipV: 0
      m_SwapUV: 0
      m_Fill: 1
      m_Scale: {x: 1, y: 1}
      m_Offset: {x: 0, y: 0}
      m_Rotation: 0
      m_Anchor: 9
    m_Material: {fileID: 2100000, guid: 31321ba15b8f8eb4c954353edc038b1d, type: 2}
    m_SubmeshIndex: 0
    m_ManualUV: 0
    elementGroup: 0
    m_TextureGroup: -1
  - m_Indexes: 500000004f0000004e000000
    m_SmoothingGroup: 0
    m_Uv:
      m_UseWorldSpace: 0
      m_FlipU: 0
      m_FlipV: 0
      m_SwapUV: 0
      m_Fill: 1
      m_Scale: {x: 1, y: 1}
      m_Offset: {x: 0, y: 0}
      m_Rotation: 0
      m_Anchor: 9
    m_Material: {fileID: 2100000, guid: 31321ba15b8f8eb4c954353edc038b1d, type: 2}
    m_SubmeshIndex: 0
    m_ManualUV: 0
    elementGroup: 0
    m_TextureGroup: -1
  - m_Indexes: 560000005500000054000000
    m_SmoothingGroup: 0
    m_Uv:
      m_UseWorldSpace: 0
      m_FlipU: 0
      m_FlipV: 0
      m_SwapUV: 0
      m_Fill: 1
      m_Scale: {x: 1, y: 1}
      m_Offset: {x: 0, y: 0}
      m_Rotation: 0
      m_Anchor: 9
    m_Material: {fileID: 2100000, guid: 31321ba15b8f8eb4c954353edc038b1d, type: 2}
    m_SubmeshIndex: 0
    m_ManualUV: 0
    elementGroup: 0
    m_TextureGroup: -1
  - m_Indexes: 5c0000005b0000005a000000
    m_SmoothingGroup: 0
    m_Uv:
      m_UseWorldSpace: 0
      m_FlipU: 0
      m_FlipV: 0
      m_SwapUV: 0
      m_Fill: 1
      m_Scale: {x: 1, y: 1}
      m_Offset: {x: 0, y: 0}
      m_Rotation: 0
      m_Anchor: 9
    m_Material: {fileID: 2100000, guid: 31321ba15b8f8eb4c954353edc038b1d, type: 2}
    m_SubmeshIndex: 0
    m_ManualUV: 0
    elementGroup: 0
    m_TextureGroup: -1
  - m_Indexes: 620000006100000060000000
    m_SmoothingGroup: 0
    m_Uv:
      m_UseWorldSpace: 0
      m_FlipU: 0
      m_FlipV: 0
      m_SwapUV: 0
      m_Fill: 1
      m_Scale: {x: 1, y: 1}
      m_Offset: {x: 0, y: 0}
      m_Rotation: 0
      m_Anchor: 9
    m_Material: {fileID: 2100000, guid: 31321ba15b8f8eb4c954353edc038b1d, type: 2}
    m_SubmeshIndex: 0
    m_ManualUV: 0
    elementGroup: 0
    m_TextureGroup: -1
  - m_Indexes: 680000006700000066000000
    m_SmoothingGroup: 0
    m_Uv:
      m_UseWorldSpace: 0
      m_FlipU: 0
      m_FlipV: 0
      m_SwapUV: 0
      m_Fill: 1
      m_Scale: {x: 1, y: 1}
      m_Offset: {x: 0, y: 0}
      m_Rotation: 0
      m_Anchor: 9
    m_Material: {fileID: 2100000, guid: 31321ba15b8f8eb4c954353edc038b1d, type: 2}
    m_SubmeshIndex: 0
    m_ManualUV: 0
    elementGroup: 0
    m_TextureGroup: -1
  - m_Indexes: 6e0000006d0000006c000000
    m_SmoothingGroup: 0
    m_Uv:
      m_UseWorldSpace: 0
      m_FlipU: 0
      m_FlipV: 0
      m_SwapUV: 0
      m_Fill: 1
      m_Scale: {x: 1, y: 1}
      m_Offset: {x: 0, y: 0}
      m_Rotation: 0
      m_Anchor: 9
    m_Material: {fileID: 2100000, guid: 31321ba15b8f8eb4c954353edc038b1d, type: 2}
    m_SubmeshIndex: 0
    m_ManualUV: 0
    elementGroup: 0
    m_TextureGroup: -1
  - m_Indexes: 740000007300000072000000
    m_SmoothingGroup: 0
    m_Uv:
      m_UseWorldSpace: 0
      m_FlipU: 0
      m_FlipV: 0
      m_SwapUV: 0
      m_Fill: 1
      m_Scale: {x: 1, y: 1}
      m_Offset: {x: 0, y: 0}
      m_Rotation: 0
      m_Anchor: 9
    m_Material: {fileID: 2100000, guid: 31321ba15b8f8eb4c954353edc038b1d, type: 2}
    m_SubmeshIndex: 0
    m_ManualUV: 0
    elementGroup: 0
    m_TextureGroup: -1
  - m_Indexes: 330000003400000035000000
    m_SmoothingGroup: 0
    m_Uv:
      m_UseWorldSpace: 0
      m_FlipU: 0
      m_FlipV: 0
      m_SwapUV: 0
      m_Fill: 1
      m_Scale: {x: 1, y: 1}
      m_Offset: {x: 0, y: 0}
      m_Rotation: 0
      m_Anchor: 9
    m_Material: {fileID: 2100000, guid: 31321ba15b8f8eb4c954353edc038b1d, type: 2}
    m_SubmeshIndex: 0
    m_ManualUV: 0
    elementGroup: 0
    m_TextureGroup: -1
  - m_Indexes: 390000003a0000003b000000
    m_SmoothingGroup: 0
    m_Uv:
      m_UseWorldSpace: 0
      m_FlipU: 0
      m_FlipV: 0
      m_SwapUV: 0
      m_Fill: 1
      m_Scale: {x: 1, y: 1}
      m_Offset: {x: 0, y: 0}
      m_Rotation: 0
      m_Anchor: 9
    m_Material: {fileID: 2100000, guid: 31321ba15b8f8eb4c954353edc038b1d, type: 2}
    m_SubmeshIndex: 0
    m_ManualUV: 0
    elementGroup: 0
    m_TextureGroup: -1
  - m_Indexes: 3f0000004000000041000000
    m_SmoothingGroup: 0
    m_Uv:
      m_UseWorldSpace: 0
      m_FlipU: 0
      m_FlipV: 0
      m_SwapUV: 0
      m_Fill: 1
      m_Scale: {x: 1, y: 1}
      m_Offset: {x: 0, y: 0}
      m_Rotation: 0
      m_Anchor: 9
    m_Material: {fileID: 2100000, guid: 31321ba15b8f8eb4c954353edc038b1d, type: 2}
    m_SubmeshIndex: 0
    m_ManualUV: 0
    elementGroup: 0
    m_TextureGroup: -1
  - m_Indexes: 450000004600000047000000
    m_SmoothingGroup: 0
    m_Uv:
      m_UseWorldSpace: 0
      m_FlipU: 0
      m_FlipV: 0
      m_SwapUV: 0
      m_Fill: 1
      m_Scale: {x: 1, y: 1}
      m_Offset: {x: 0, y: 0}
      m_Rotation: 0
      m_Anchor: 9
    m_Material: {fileID: 2100000, guid: 31321ba15b8f8eb4c954353edc038b1d, type: 2}
    m_SubmeshIndex: 0
    m_ManualUV: 0
    elementGroup: 0
    m_TextureGroup: -1
  - m_Indexes: 4b0000004c0000004d000000
    m_SmoothingGroup: 0
    m_Uv:
      m_UseWorldSpace: 0
      m_FlipU: 0
      m_FlipV: 0
      m_SwapUV: 0
      m_Fill: 1
      m_Scale: {x: 1, y: 1}
      m_Offset: {x: 0, y: 0}
      m_Rotation: 0
      m_Anchor: 9
    m_Material: {fileID: 2100000, guid: 31321ba15b8f8eb4c954353edc038b1d, type: 2}
    m_SubmeshIndex: 0
    m_ManualUV: 0
    elementGroup: 0
    m_TextureGroup: -1
  - m_Indexes: 510000005200000053000000
    m_SmoothingGroup: 0
    m_Uv:
      m_UseWorldSpace: 0
      m_FlipU: 0
      m_FlipV: 0
      m_SwapUV: 0
      m_Fill: 1
      m_Scale: {x: 1, y: 1}
      m_Offset: {x: 0, y: 0}
      m_Rotation: 0
      m_Anchor: 9
    m_Material: {fileID: 2100000, guid: 31321ba15b8f8eb4c954353edc038b1d, type: 2}
    m_SubmeshIndex: 0
    m_ManualUV: 0
    elementGroup: 0
    m_TextureGroup: -1
  - m_Indexes: 570000005800000059000000
    m_SmoothingGroup: 0
    m_Uv:
      m_UseWorldSpace: 0
      m_FlipU: 0
      m_FlipV: 0
      m_SwapUV: 0
      m_Fill: 1
      m_Scale: {x: 1, y: 1}
      m_Offset: {x: 0, y: 0}
      m_Rotation: 0
      m_Anchor: 9
    m_Material: {fileID: 2100000, guid: 31321ba15b8f8eb4c954353edc038b1d, type: 2}
    m_SubmeshIndex: 0
    m_ManualUV: 0
    elementGroup: 0
    m_TextureGroup: -1
  - m_Indexes: 5d0000005e0000005f000000
    m_SmoothingGroup: 0
    m_Uv:
      m_UseWorldSpace: 0
      m_FlipU: 0
      m_FlipV: 0
      m_SwapUV: 0
      m_Fill: 1
      m_Scale: {x: 1, y: 1}
      m_Offset: {x: 0, y: 0}
      m_Rotation: 0
      m_Anchor: 9
    m_Material: {fileID: 2100000, guid: 31321ba15b8f8eb4c954353edc038b1d, type: 2}
    m_SubmeshIndex: 0
    m_ManualUV: 0
    elementGroup: 0
    m_TextureGroup: -1
  - m_Indexes: 630000006400000065000000
    m_SmoothingGroup: 0
    m_Uv:
      m_UseWorldSpace: 0
      m_FlipU: 0
      m_FlipV: 0
      m_SwapUV: 0
      m_Fill: 1
      m_Scale: {x: 1, y: 1}
      m_Offset: {x: 0, y: 0}
      m_Rotation: 0
      m_Anchor: 9
    m_Material: {fileID: 2100000, guid: 31321ba15b8f8eb4c954353edc038b1d, type: 2}
    m_SubmeshIndex: 0
    m_ManualUV: 0
    elementGroup: 0
    m_TextureGroup: -1
  - m_Indexes: 690000006a0000006b000000
    m_SmoothingGroup: 0
    m_Uv:
      m_UseWorldSpace: 0
      m_FlipU: 0
      m_FlipV: 0
      m_SwapUV: 0
      m_Fill: 1
      m_Scale: {x: 1, y: 1}
      m_Offset: {x: 0, y: 0}
      m_Rotation: 0
      m_Anchor: 9
    m_Material: {fileID: 2100000, guid: 31321ba15b8f8eb4c954353edc038b1d, type: 2}
    m_SubmeshIndex: 0
    m_ManualUV: 0
    elementGroup: 0
    m_TextureGroup: -1
  - m_Indexes: 6f0000007000000071000000
    m_SmoothingGroup: 0
    m_Uv:
      m_UseWorldSpace: 0
      m_FlipU: 0
      m_FlipV: 0
      m_SwapUV: 0
      m_Fill: 1
      m_Scale: {x: 1, y: 1}
      m_Offset: {x: 0, y: 0}
      m_Rotation: 0
      m_Anchor: 9
    m_Material: {fileID: 2100000, guid: 31321ba15b8f8eb4c954353edc038b1d, type: 2}
    m_SubmeshIndex: 0
    m_ManualUV: 0
    elementGroup: 0
    m_TextureGroup: -1
  - m_Indexes: 750000007600000077000000
    m_SmoothingGroup: 0
    m_Uv:
      m_UseWorldSpace: 0
      m_FlipU: 0
      m_FlipV: 0
      m_SwapUV: 0
      m_Fill: 1
      m_Scale: {x: 1, y: 1}
      m_Offset: {x: 0, y: 0}
      m_Rotation: 0
      m_Anchor: 9
    m_Material: {fileID: 2100000, guid: 31321ba15b8f8eb4c954353edc038b1d, type: 2}
    m_SubmeshIndex: 0
    m_ManualUV: 0
    elementGroup: 0
    m_TextureGroup: -1
  m_SharedVertices:
  - m_Vertices: 000000002e0000003000000074000000
  - m_Vertices: 010000002f0000003300000077000000
  - m_Vertices: 02000000040000003200000036000000
  - m_Vertices: 03000000050000003500000039000000
  - m_Vertices: 0600000008000000380000003c000000
  - m_Vertices: 07000000090000003b0000003f000000
  - m_Vertices: 0a0000000c0000003e00000042000000
  - m_Vertices: 0b0000000d0000004100000045000000
  - m_Vertices: 0e000000100000004400000048000000
  - m_Vertices: 0f00000011000000470000004b000000
  - m_Vertices: 12000000140000004a0000004e000000
  - m_Vertices: 13000000150000004d00000051000000
  - m_Vertices: 16000000180000005000000054000000
  - m_Vertices: 17000000190000005300000057000000
  - m_Vertices: 1a0000001c000000560000005a000000
  - m_Vertices: 1b0000001d000000590000005d000000
  - m_Vertices: 1e000000200000005c00000060000000
  - m_Vertices: 1f000000210000005f00000063000000
  - m_Vertices: 22000000240000006200000066000000
  - m_Vertices: 23000000250000006500000069000000
  - m_Vertices: 2600000028000000680000006c000000
  - m_Vertices: 27000000290000006b0000006f000000
  - m_Vertices: 2a0000002c0000006e00000072000000
  - m_Vertices: 2b0000002d0000007100000075000000
  - m_Vertices: 31000000370000003d00000043000000490000004f000000550000005b00000061000000670000006d00000073000000
  - m_Vertices: 340000003a00000040000000460000004c00000052000000580000005e000000640000006a0000007000000076000000
  m_SharedTextures: []
  m_Positions:
  - {x: 2.0000002, y: -0.5000311, z: 0.00000035764242}
  - {x: 2.0000002, y: 0.4999689, z: 0.00000035764242}
  - {x: 1.732051, y: -0.5000311, z: 1.0000004}
  - {x: 1.732051, y: 0.4999689, z: 1.0000004}
  - {x: 1.732051, y: -0.5000311, z: 1.0000004}
  - {x: 1.732051, y: 0.4999689, z: 1.0000004}
  - {x: 1.0000002, y: -0.5000311, z: 1.7320513}
  - {x: 1.0000002, y: 0.4999689, z: 1.7320513}
  - {x: 1.0000002, y: -0.5000311, z: 1.7320513}
  - {x: 1.0000002, y: 0.4999689, z: 1.7320513}
  - {x: 0.00000023841858, y: -0.5000311, z: 2.0000005}
  - {x: 0.00000023841858, y: 0.4999689, z: 2.0000005}
  - {x: 0.00000023841858, y: -0.5000311, z: 2.0000005}
  - {x: 0.00000023841858, y: 0.4999689, z: 2.0000005}
  - {x: -0.99999976, y: -0.5000311, z: 1.7320511}
  - {x: -0.99999976, y: 0.4999689, z: 1.7320511}
  - {x: -0.99999976, y: -0.5000311, z: 1.7320511}
  - {x: -0.99999976, y: 0.4999689, z: 1.7320511}
  - {x: -1.7320507, y: -0.5000311, z: 1.0000005}
  - {x: -1.7320507, y: 0.4999689, z: 1.0000005}
  - {x: -1.7320507, y: -0.5000311, z: 1.0000005}
  - {x: -1.7320507, y: 0.4999689, z: 1.0000005}
  - {x: -1.9999998, y: -0.5000311, z: 0.00000018279687}
  - {x: -1.9999998, y: 0.4999689, z: 0.00000018279687}
  - {x: -1.9999998, y: -0.5000311, z: 0.00000018279687}
  - {x: -1.9999998, y: 0.4999689, z: 0.00000018279687}
  - {x: -1.7320507, y: -0.5000311, z: -0.9999996}
  - {x: -1.7320507, y: 0.4999689, z: -0.9999996}
  - {x: -1.7320507, y: -0.5000311, z: -0.9999996}
  - {x: -1.7320507, y: 0.4999689, z: -0.9999996}
  - {x: -0.9999995, y: -0.5000311, z: -1.7320505}
  - {x: -0.9999995, y: 0.4999689, z: -1.7320505}
  - {x: -0.9999995, y: -0.5000311, z: -1.7320505}
  - {x: -0.9999995, y: 0.4999689, z: -1.7320505}
  - {x: 0.00000023841858, y: -0.5000311, z: -1.9999996}
  - {x: 0.00000023841858, y: 0.4999689, z: -1.9999996}
  - {x: 0.00000023841858, y: -0.5000311, z: -1.9999996}
  - {x: 0.00000023841858, y: 0.4999689, z: -1.9999996}
  - {x: 1, y: -0.5000311, z: -1.7320505}
  - {x: 1, y: 0.4999689, z: -1.7320505}
  - {x: 1, y: -0.5000311, z: -1.7320505}
  - {x: 1, y: 0.4999689, z: -1.7320505}
  - {x: 1.7320509, y: -0.5000311, z: -1}
  - {x: 1.7320509, y: 0.4999689, z: -1}
  - {x: 1.7320509, y: -0.5000311, z: -1}
  - {x: 1.7320509, y: 0.4999689, z: -1}
  - {x: 2.0000002, y: -0.5000311, z: 0.00000035764242}
  - {x: 2.0000002, y: 0.4999689, z: 0.00000035764242}
  - {x: 2.0000002, y: -0.5000311, z: 0.00000035764242}
  - {x: 0.00000023841858, y: -0.5000311, z: 0.00000035764242}
  - {x: 1.732051, y: -0.5000311, z: 1.0000004}
  - {x: 2.0000002, y: 0.4999689, z: 0.00000035764242}
  - {x: 0.00000023841858, y: 0.4999689, z: 0.00000035764242}
  - {x: 1.732051, y: 0.4999689, z: 1.0000004}
  - {x: 1.732051, y: -0.5000311, z: 1.0000004}
  - {x: 0.00000023841858, y: -0.5000311, z: 0.00000035764242}
  - {x: 1.0000002, y: -0.5000311, z: 1.7320513}
  - {x: 1.732051, y: 0.4999689, z: 1.0000004}
  - {x: 0.00000023841858, y: 0.4999689, z: 0.00000035764242}
  - {x: 1.0000002, y: 0.4999689, z: 1.7320513}
  - {x: 1.0000002, y: -0.5000311, z: 1.7320513}
  - {x: 0.00000023841858, y: -0.5000311, z: 0.00000035764242}
  - {x: 0.00000023841858, y: -0.5000311, z: 2.0000005}
  - {x: 1.0000002, y: 0.4999689, z: 1.7320513}
  - {x: 0.00000023841858, y: 0.4999689, z: 0.00000035764242}
  - {x: 0.00000023841858, y: 0.4999689, z: 2.0000005}
  - {x: 0.00000023841858, y: -0.5000311, z: 2.0000005}
  - {x: 0.00000023841858, y: -0.5000311, z: 0.00000035764242}
  - {x: -0.99999976, y: -0.5000311, z: 1.7320511}
  - {x: 0.00000023841858, y: 0.4999689, z: 2.0000005}
  - {x: 0.00000023841858, y: 0.4999689, z: 0.00000035764242}
  - {x: -0.99999976, y: 0.4999689, z: 1.7320511}
  - {x: -0.99999976, y: -0.5000311, z: 1.7320511}
  - {x: 0.00000023841858, y: -0.5000311, z: 0.00000035764242}
  - {x: -1.7320507, y: -0.5000311, z: 1.0000005}
  - {x: -0.99999976, y: 0.4999689, z: 1.7320511}
  - {x: 0.00000023841858, y: 0.4999689, z: 0.00000035764242}
  - {x: -1.7320507, y: 0.4999689, z: 1.0000005}
  - {x: -1.7320507, y: -0.5000311, z: 1.0000005}
  - {x: 0.00000023841858, y: -0.5000311, z: 0.00000035764242}
  - {x: -1.9999998, y: -0.5000311, z: 0.00000018279687}
  - {x: -1.7320507, y: 0.4999689, z: 1.0000005}
  - {x: 0.00000023841858, y: 0.4999689, z: 0.00000035764242}
  - {x: -1.9999998, y: 0.4999689, z: 0.00000018279687}
  - {x: -1.9999998, y: -0.5000311, z: 0.00000018279687}
  - {x: 0.00000023841858, y: -0.5000311, z: 0.00000035764242}
  - {x: -1.7320507, y: -0.5000311, z: -0.9999996}
  - {x: -1.9999998, y: 0.4999689, z: 0.00000018279687}
  - {x: 0.00000023841858, y: 0.4999689, z: 0.00000035764242}
  - {x: -1.7320507, y: 0.4999689, z: -0.9999996}
  - {x: -1.7320507, y: -0.5000311, z: -0.9999996}
  - {x: 0.00000023841858, y: -0.5000311, z: 0.00000035764242}
  - {x: -0.9999995, y: -0.5000311, z: -1.7320505}
  - {x: -1.7320507, y: 0.4999689, z: -0.9999996}
  - {x: 0.00000023841858, y: 0.4999689, z: 0.00000035764242}
  - {x: -0.9999995, y: 0.4999689, z: -1.7320505}
  - {x: -0.9999995, y: -0.5000311, z: -1.7320505}
  - {x: 0.00000023841858, y: -0.5000311, z: 0.00000035764242}
  - {x: 0.00000023841858, y: -0.5000311, z: -1.9999996}
  - {x: -0.9999995, y: 0.4999689, z: -1.7320505}
  - {x: 0.00000023841858, y: 0.4999689, z: 0.00000035764242}
  - {x: 0.00000023841858, y: 0.4999689, z: -1.9999996}
  - {x: 0.00000023841858, y: -0.5000311, z: -1.9999996}
  - {x: 0.00000023841858, y: -0.5000311, z: 0.00000035764242}
  - {x: 1, y: -0.5000311, z: -1.7320505}
  - {x: 0.00000023841858, y: 0.4999689, z: -1.9999996}
  - {x: 0.00000023841858, y: 0.4999689, z: 0.00000035764242}
  - {x: 1, y: 0.4999689, z: -1.7320505}
  - {x: 1, y: -0.5000311, z: -1.7320505}
  - {x: 0.00000023841858, y: -0.5000311, z: 0.00000035764242}
  - {x: 1.7320509, y: -0.5000311, z: -1}
  - {x: 1, y: 0.4999689, z: -1.7320505}
  - {x: 0.00000023841858, y: 0.4999689, z: 0.00000035764242}
  - {x: 1.7320509, y: 0.4999689, z: -1}
  - {x: 1.7320509, y: -0.5000311, z: -1}
  - {x: 0.00000023841858, y: -0.5000311, z: 0.00000035764242}
  - {x: 2.0000002, y: -0.5000311, z: 0.00000035764242}
  - {x: 1.7320509, y: 0.4999689, z: -1}
  - {x: 0.00000023841858, y: 0.4999689, z: 0.00000035764242}
  - {x: 2.0000002, y: 0.4999689, z: 0.00000035764242}
  m_Textures0:
  - {x: -0.51763785, y: -0.5000311}
  - {x: -0.51763785, y: 0.4999689}
  - {x: 0.5176383, y: -0.5000311}
  - {x: 0.5176383, y: 0.4999689}
  - {x: -0.5176378, y: -0.5000311}
  - {x: -0.5176378, y: 0.4999689}
  - {x: 0.5176384, y: -0.5000311}
  - {x: 0.5176384, y: 0.4999689}
  - {x: -0.51763815, y: -0.5000311}
  - {x: -0.51763815, y: 0.4999689}
  - {x: 0.517638, y: -0.5000311}
  - {x: 0.517638, y: 0.4999689}
  - {x: -0.51763874, y: -0.5000311}
  - {x: -0.51763874, y: 0.4999689}
  - {x: 0.5176375, y: -0.5000311}
  - {x: 0.5176375, y: 0.4999689}
  - {x: -0.51763815, y: -0.5000311}
  - {x: -0.51763815, y: 0.4999689}
  - {x: 0.51763797, y: -0.5000311}
  - {x: 0.51763797, y: 0.4999689}
  - {x: -0.51763886, y: -0.5000311}
  - {x: -0.51763886, y: 0.4999689}
  - {x: 0.5176376, y: -0.5000311}
  - {x: 0.5176376, y: 0.4999689}
  - {x: -0.51763815, y: -0.5000311}
  - {x: -0.51763815, y: 0.4999689}
  - {x: 0.5176378, y: -0.5000311}
  - {x: 0.5176378, y: 0.4999689}
  - {x: -0.51763844, y: -0.5000311}
  - {x: -0.51763844, y: 0.4999689}
  - {x: 0.5176381, y: -0.5000311}
  - {x: 0.5176381, y: 0.4999689}
  - {x: -0.5176377, y: -0.5000311}
  - {x: -0.5176377, y: 0.4999689}
  - {x: 0.51763815, y: -0.5000311}
  - {x: 0.51763815, y: 0.4999689}
  - {x: -0.5176377, y: -0.5000311}
  - {x: -0.5176377, y: 0.4999689}
  - {x: 0.5176382, y: -0.5000311}
  - {x: 0.5176382, y: 0.4999689}
  - {x: -0.51763743, y: -0.5000311}
  - {x: -0.51763743, y: 0.4999689}
  - {x: 0.5176386, y: -0.5000311}
  - {x: 0.5176386, y: 0.4999689}
  - {x: -0.517638, y: -0.5000311}
  - {x: -0.517638, y: 0.4999689}
  - {x: 0.5176386, y: -0.5000311}
  - {x: 0.5176386, y: 0.4999689}
  - {x: -2.0000002, y: 0.00000035764242}
  - {x: -0.00000023841858, y: 0.00000035764242}
  - {x: -1.732051, y: 1.0000004}
  - {x: 2.0000002, y: 0.00000035764242}
  - {x: 0.00000023841858, y: 0.00000035764242}
  - {x: 1.732051, y: 1.0000004}
  - {x: -1.732051, y: 1.0000004}
  - {x: -0.00000023841858, y: 0.00000035764242}
  - {x: -1.0000002, y: 1.7320513}
  - {x: 1.732051, y: 1.0000004}
  - {x: 0.00000023841858, y: 0.00000035764242}
  - {x: 1.0000002, y: 1.7320513}
  - {x: -1.0000002, y: 1.7320513}
  - {x: -0.00000023841858, y: 0.00000035764242}
  - {x: -0.00000023841858, y: 2.0000005}
  - {x: 1.0000002, y: 1.7320513}
  - {x: 0.00000023841858, y: 0.00000035764242}
  - {x: 0.00000023841858, y: 2.0000005}
  - {x: -0.00000023841858, y: 2.0000005}
  - {x: -0.00000023841858, y: 0.00000035764242}
  - {x: 0.99999976, y: 1.7320511}
  - {x: 0.00000023841858, y: 2.0000005}
  - {x: 0.00000023841858, y: 0.00000035764242}
  - {x: -0.99999976, y: 1.7320511}
  - {x: 0.99999976, y: 1.7320511}
  - {x: -0.00000023841858, y: 0.00000035764242}
  - {x: 1.7320507, y: 1.0000005}
  - {x: -0.99999976, y: 1.7320511}
  - {x: 0.00000023841858, y: 0.00000035764242}
  - {x: -1.7320507, y: 1.0000005}
  - {x: 1.7320507, y: 1.0000005}
  - {x: -0.00000023841858, y: 0.00000035764242}
  - {x: 1.9999998, y: 0.00000018279687}
  - {x: -1.7320507, y: 1.0000005}
  - {x: 0.00000023841858, y: 0.00000035764242}
  - {x: -1.9999998, y: 0.00000018279687}
  - {x: 1.9999998, y: 0.00000018279687}
  - {x: -0.00000023841858, y: 0.00000035764242}
  - {x: 1.7320507, y: -0.9999996}
  - {x: -1.9999998, y: 0.00000018279687}
  - {x: 0.00000023841858, y: 0.00000035764242}
  - {x: -1.7320507, y: -0.9999996}
  - {x: 1.7320507, y: -0.9999996}
  - {x: -0.00000023841858, y: 0.00000035764242}
  - {x: 0.9999995, y: -1.7320505}
  - {x: -1.7320507, y: -0.9999996}
  - {x: 0.00000023841858, y: 0.00000035764242}
  - {x: -0.9999995, y: -1.7320505}
  - {x: 0.9999995, y: -1.7320505}
  - {x: -0.00000023841858, y: 0.00000035764242}
  - {x: -0.00000023841858, y: -1.9999996}
  - {x: -0.9999995, y: -1.7320505}
  - {x: 0.00000023841858, y: 0.00000035764242}
  - {x: 0.00000023841858, y: -1.9999996}
  - {x: -0.00000023841858, y: -1.9999996}
  - {x: -0.00000023841858, y: 0.00000035764242}
  - {x: -1, y: -1.7320505}
  - {x: 0.00000023841858, y: -1.9999996}
  - {x: 0.00000023841858, y: 0.00000035764242}
  - {x: 1, y: -1.7320505}
  - {x: -1, y: -1.7320505}
  - {x: -0.00000023841858, y: 0.00000035764242}
  - {x: -1.7320509, y: -1}
  - {x: 1, y: -1.7320505}
  - {x: 0.00000023841858, y: 0.00000035764242}
  - {x: 1.7320509, y: -1}
  - {x: -1.7320509, y: -1}
  - {x: -0.00000023841858, y: 0.00000035764242}
  - {x: -2.0000002, y: 0.00000035764242}
  - {x: 1.7320509, y: -1}
  - {x: 0.00000023841858, y: 0.00000035764242}
  - {x: 2.0000002, y: 0.00000035764242}
  m_Textures2: []
  m_Textures3: []
  m_Tangents:
  - {x: 0.000000030853634, y: 0, z: 1, w: -1}
  - {x: 0.000000030853634, y: 0, z: 1, w: -1}
  - {x: -0.5, y: 0, z: 0.86602545, w: -1}
  - {x: -0.5, y: 0, z: 0.86602545, w: -1}
  - {x: -0.49999997, y: 0, z: 0.86602545, w: -1}
  - {x: -0.49999997, y: 0, z: 0.86602545, w: -1}
  - {x: -0.8660254, y: 0, z: 0.50000006, w: -1}
  - {x: -0.8660254, y: 0, z: 0.50000006, w: -1}
  - {x: -0.8660254, y: 0, z: 0.50000006, w: -1}
  - {x: -0.8660254, y: 0, z: 0.50000006, w: -1}
  - {x: -1, y: 0, z: -0.00000006170727, w: -1}
  - {x: -1, y: 0, z: -0.00000006170727, w: -1}
  - {x: -1, y: 0, z: -0.00000006170727, w: -1}
  - {x: -1, y: 0, z: -0.00000006170727, w: -1}
  - {x: -0.86602545, y: 0, z: -0.49999997, w: -1}
  - {x: -0.86602545, y: 0, z: -0.49999997, w: -1}
  - {x: -0.86602545, y: 0, z: -0.49999997, w: -1}
  - {x: -0.86602545, y: 0, z: -0.49999997, w: -1}
  - {x: -0.50000006, y: 0, z: -0.8660254, w: -1}
  - {x: -0.50000006, y: 0, z: -0.8660254, w: -1}
  - {x: -0.5, y: 0, z: -0.8660254, w: -1}
  - {x: -0.5, y: 0, z: -0.8660254, w: -1}
  - {x: 0.00000006170727, y: 0, z: -1, w: -1}
  - {x: 0.00000006170727, y: 0, z: -1, w: -1}
  - {x: 0.000000030853634, y: 0, z: -1, w: -1}
  - {x: 0.000000030853634, y: 0, z: -1, w: -1}
  - {x: 0.5, y: 0, z: -0.8660254, w: -1}
  - {x: 0.5, y: 0, z: -0.8660254, w: -1}
  - {x: 0.5, y: 0, z: -0.8660254, w: -1}
  - {x: 0.5, y: 0, z: -0.8660254, w: -1}
  - {x: 0.86602545, y: 0, z: -0.49999994, w: -1}
  - {x: 0.86602545, y: 0, z: -0.49999994, w: -1}
  - {x: 0.86602545, y: 0, z: -0.49999994, w: -1}
  - {x: 0.86602545, y: 0, z: -0.49999994, w: -1}
  - {x: 1, y: 0, z: 0, w: -1}
  - {x: 1, y: 0, z: 0, w: -1}
  - {x: 1, y: 0, z: 0, w: -1}
  - {x: 1, y: 0, z: 0, w: -1}
  - {x: 0.8660255, y: 0, z: 0.49999988, w: -1}
  - {x: 0.8660255, y: 0, z: 0.49999988, w: -1}
  - {x: 0.8660255, y: 0, z: 0.49999988, w: -1}
  - {x: 0.8660255, y: 0, z: 0.49999988, w: -1}
  - {x: 0.5000001, y: 0, z: 0.8660253, w: -1}
  - {x: 0.5000001, y: 0, z: 0.8660253, w: -1}
  - {x: 0.5000001, y: 0, z: 0.8660253, w: -1}
  - {x: 0.5000001, y: 0, z: 0.8660253, w: -1}
  - {x: 0, y: 0, z: 1, w: -1}
  - {x: 0, y: 0, z: 1, w: -1}
  - {x: -1, y: 0, z: 0, w: -1}
  - {x: -1, y: 0, z: 0, w: -1}
  - {x: -1, y: 0, z: 0, w: -1}
  - {x: 1, y: 0, z: 0, w: -1}
  - {x: 1, y: 0, z: 0, w: -1}
  - {x: 1, y: 0, z: 0, w: -1}
  - {x: -1, y: 0, z: 0, w: -1}
  - {x: -1, y: 0, z: 0, w: -1}
  - {x: -1, y: 0, z: 0, w: -1}
  - {x: 1, y: 0, z: 0, w: -1}
  - {x: 1, y: 0, z: 0, w: -1}
  - {x: 1, y: 0, z: 0, w: -1}
  - {x: -1, y: 0, z: 0, w: -1}
  - {x: -1, y: 0, z: 0, w: -1}
  - {x: -1, y: 0, z: 0, w: -1}
  - {x: 1, y: 0, z: 0, w: -1}
  - {x: 1, y: 0, z: 0, w: -1}
  - {x: 1, y: 0, z: 0, w: -1}
  - {x: -1, y: 0, z: 0, w: -1}
  - {x: -1, y: 0, z: 0, w: -1}
  - {x: -1, y: 0, z: 0, w: -1}
  - {x: 1, y: 0, z: 0, w: -1}
  - {x: 1, y: 0, z: 0, w: -1}
  - {x: 1, y: 0, z: 0, w: -1}
  - {x: -1, y: 0, z: 0, w: -1}
  - {x: -1, y: 0, z: 0, w: -1}
  - {x: -1, y: 0, z: 0, w: -1}
  - {x: 1, y: 0, z: 0, w: -1}
  - {x: 1, y: 0, z: 0, w: -1}
  - {x: 1, y: 0, z: 0, w: -1}
  - {x: -1, y: 0, z: 0, w: -1}
  - {x: -1, y: 0, z: 0, w: -1}
  - {x: -1, y: 0, z: 0, w: -1}
  - {x: 1, y: 0, z: 0, w: -1}
  - {x: 1, y: 0, z: 0, w: -1}
  - {x: 1, y: 0, z: 0, w: -1}
  - {x: -1, y: 0, z: 0, w: -1}
  - {x: -1, y: 0, z: 0, w: -1}
  - {x: -1, y: 0, z: 0, w: -1}
  - {x: 1, y: 0, z: 0, w: -1}
  - {x: 1, y: 0, z: 0, w: -1}
  - {x: 1, y: 0, z: 0, w: -1}
  - {x: -1, y: 0, z: 0, w: -1}
  - {x: -1, y: 0, z: 0, w: -1}
  - {x: -1, y: 0, z: 0, w: -1}
  - {x: 1, y: 0, z: 0, w: -1}
  - {x: 1, y: 0, z: 0, w: -1}
  - {x: 1, y: 0, z: 0, w: -1}
  - {x: -1, y: 0, z: 0, w: -1}
  - {x: -1, y: 0, z: 0, w: -1}
  - {x: -1, y: 0, z: 0, w: -1}
  - {x: 1, y: 0, z: 0, w: -1}
  - {x: 1, y: 0, z: 0, w: -1}
  - {x: 1, y: 0, z: 0, w: -1}
  - {x: -1, y: 0, z: 0, w: -1}
  - {x: -1, y: 0, z: 0, w: -1}
  - {x: -1, y: 0, z: 0, w: -1}
  - {x: 1, y: 0, z: 0, w: -1}
  - {x: 1, y: 0, z: 0, w: -1}
  - {x: 1, y: 0, z: 0, w: -1}
  - {x: -1, y: 0, z: 0, w: -1}
  - {x: -1, y: 0, z: 0, w: -1}
  - {x: -1, y: 0, z: 0, w: -1}
  - {x: 1, y: 0, z: 0, w: -1}
  - {x: 1, y: 0, z: 0, w: -1}
  - {x: 1, y: 0, z: 0, w: -1}
  - {x: -1, y: 0, z: 0, w: -1}
  - {x: -1, y: 0, z: 0, w: -1}
  - {x: -1, y: 0, z: 0, w: -1}
  - {x: 1, y: 0, z: 0, w: -1}
  - {x: 1, y: 0, z: 0, w: -1}
  - {x: 1, y: 0, z: 0, w: -1}
  m_Colors: []
  m_UnwrapParameters:
    m_HardAngle: 88
    m_PackMargin: 20
    m_AngleError: 8
    m_AreaError: 15
  m_PreserveMeshAssetOnDestroy: 0
  assetGuid: 
  m_Mesh: {fileID: 0}
  m_IsSelectable: 1
  m_SelectedFaces: 
  m_SelectedEdges: []
  m_SelectedVertices: 
--- !u!23 &2278234263237208666
MeshRenderer:
  m_ObjectHideFlags: 0
  m_CorrespondingSourceObject: {fileID: 0}
  m_PrefabInstance: {fileID: 0}
  m_PrefabAsset: {fileID: 0}
  m_GameObject: {fileID: 17630083423225754}
  m_Enabled: 1
  m_CastShadows: 1
  m_ReceiveShadows: 1
  m_DynamicOccludee: 1
  m_MotionVectors: 1
  m_LightProbeUsage: 1
  m_ReflectionProbeUsage: 1
  m_RayTracingMode: 2
  m_RayTraceProcedural: 0
  m_RenderingLayerMask: 1
  m_RendererPriority: 0
  m_Materials:
  - {fileID: 2100000, guid: 665674388daee30408282a6b9bef2e3c, type: 2}
  m_StaticBatchInfo:
    firstSubMesh: 0
    subMeshCount: 0
  m_StaticBatchRoot: {fileID: 0}
  m_ProbeAnchor: {fileID: 0}
  m_LightProbeVolumeOverride: {fileID: 0}
  m_ScaleInLightmap: 1
  m_ReceiveGI: 1
  m_PreserveUVs: 0
  m_IgnoreNormalsForChartDetection: 0
  m_ImportantGI: 0
  m_StitchLightmapSeams: 1
  m_SelectedEditorRenderState: 2
  m_MinimumChartSize: 4
  m_AutoUVMaxDistance: 0.5
  m_AutoUVMaxAngle: 89
  m_LightmapParameters: {fileID: 0}
  m_SortingLayerID: 0
  m_SortingLayer: 0
  m_SortingOrder: 0
  m_AdditionalVertexStreams: {fileID: 0}
--- !u!33 &3124414468084294164
MeshFilter:
  m_ObjectHideFlags: 0
  m_CorrespondingSourceObject: {fileID: 0}
  m_PrefabInstance: {fileID: 0}
  m_PrefabAsset: {fileID: 0}
  m_GameObject: {fileID: 17630083423225754}
  m_Mesh: {fileID: 0}
--- !u!64 &6152943213296740300
MeshCollider:
  m_ObjectHideFlags: 0
  m_CorrespondingSourceObject: {fileID: 0}
  m_PrefabInstance: {fileID: 0}
  m_PrefabAsset: {fileID: 0}
  m_GameObject: {fileID: 17630083423225754}
  m_Material: {fileID: 0}
  m_IsTrigger: 0
  m_Enabled: 1
  serializedVersion: 4
  m_Convex: 1
  m_CookingOptions: 30
  m_Mesh: {fileID: 0}
--- !u!1 &4894277519372615860
GameObject:
  m_ObjectHideFlags: 0
  m_CorrespondingSourceObject: {fileID: 0}
  m_PrefabInstance: {fileID: 0}
  m_PrefabAsset: {fileID: 0}
  serializedVersion: 6
  m_Component:
  - component: {fileID: 7120039923820782966}
  - component: {fileID: 2502327131771415387}
  - component: {fileID: 8427418611868617529}
  m_Layer: 0
  m_Name: PressurePlate (1)
  m_TagString: Red
  m_Icon: {fileID: 0}
  m_NavMeshLayer: 0
  m_StaticEditorFlags: 0
  m_IsActive: 1
--- !u!4 &7120039923820782966
Transform:
  m_ObjectHideFlags: 0
  m_CorrespondingSourceObject: {fileID: 0}
  m_PrefabInstance: {fileID: 0}
  m_PrefabAsset: {fileID: 0}
  m_GameObject: {fileID: 4894277519372615860}
  m_LocalRotation: {x: -0, y: -0, z: -0, w: 1}
  m_LocalPosition: {x: 0.010002136, y: 1.3100005, z: -0.23}
  m_LocalScale: {x: 0.7410719, y: 2.4702394, z: 0.7410719}
  m_Children: []
  m_Father: {fileID: 4337022231011773713}
  m_RootOrder: 0
  m_LocalEulerAnglesHint: {x: 0, y: 0, z: 0}
--- !u!114 &2502327131771415387
MonoBehaviour:
  m_ObjectHideFlags: 0
  m_CorrespondingSourceObject: {fileID: 0}
  m_PrefabInstance: {fileID: 0}
  m_PrefabAsset: {fileID: 0}
  m_GameObject: {fileID: 4894277519372615860}
  m_Enabled: 1
  m_EditorHideFlags: 0
  m_Script: {fileID: 11500000, guid: d977d40c2c189974facbf6fc8fd693f1, type: 3}
  m_Name: 
  m_EditorClassIdentifier: 
  ButtonColor: 1
  IsActive: 0
  onActivate:
    m_PersistentCalls:
      m_Calls: []
  onDeactivate:
    m_PersistentCalls:
      m_Calls: []
--- !u!65 &8427418611868617529
BoxCollider:
  m_ObjectHideFlags: 0
  m_CorrespondingSourceObject: {fileID: 0}
  m_PrefabInstance: {fileID: 0}
  m_PrefabAsset: {fileID: 0}
  m_GameObject: {fileID: 4894277519372615860}
  m_Material: {fileID: 0}
  m_IsTrigger: 1
  m_Enabled: 1
  serializedVersion: 2
  m_Size: {x: 2.9756496, y: 1.1140307, z: 3.1260414}
  m_Center: {x: -0.0019338011, y: 0.05701536, z: 0.28345585}
--- !u!1 &6401857306748854402
GameObject:
  m_ObjectHideFlags: 0
  m_CorrespondingSourceObject: {fileID: 0}
  m_PrefabInstance: {fileID: 0}
  m_PrefabAsset: {fileID: 0}
  serializedVersion: 6
  m_Component:
  - component: {fileID: 3954774578235739431}
  m_Layer: 0
  m_Name: GameObject
  m_TagString: Untagged
  m_Icon: {fileID: 0}
  m_NavMeshLayer: 0
  m_StaticEditorFlags: 0
  m_IsActive: 1
--- !u!4 &3954774578235739431
Transform:
  m_ObjectHideFlags: 0
  m_CorrespondingSourceObject: {fileID: 0}
  m_PrefabInstance: {fileID: 0}
  m_PrefabAsset: {fileID: 0}
  m_GameObject: {fileID: 6401857306748854402}
  m_LocalRotation: {x: 0, y: 0, z: 0, w: 1}
  m_LocalPosition: {x: 1.12, y: -0, z: -0.07}
  m_LocalScale: {x: 1, y: 1, z: 1}
  m_Children:
  - {fileID: 2011115273969333145}
  m_Father: {fileID: 4337022231011773713}
  m_RootOrder: 1
  m_LocalEulerAnglesHint: {x: 0, y: 0, z: 0}
--- !u!1 &9013532733035060279
GameObject:
  m_ObjectHideFlags: 0
  m_CorrespondingSourceObject: {fileID: 0}
  m_PrefabInstance: {fileID: 0}
  m_PrefabAsset: {fileID: 0}
  serializedVersion: 6
  m_Component:
  - component: {fileID: 2011115273969333145}
  - component: {fileID: 8831674506453175018}
  - component: {fileID: 4423372627065640185}
  - component: {fileID: 1751865959328787895}
  - component: {fileID: 7003903681665066039}
  m_Layer: 0
  m_Name: Model
  m_TagString: Red
  m_Icon: {fileID: 0}
  m_NavMeshLayer: 0
  m_StaticEditorFlags: 0
  m_IsActive: 1
--- !u!4 &2011115273969333145
Transform:
  m_ObjectHideFlags: 0
  m_CorrespondingSourceObject: {fileID: 0}
  m_PrefabInstance: {fileID: 0}
  m_PrefabAsset: {fileID: 0}
  m_GameObject: {fileID: 9013532733035060279}
  m_LocalRotation: {x: -0, y: -0, z: -0, w: 1}
  m_LocalPosition: {x: 0.010002197, y: 1.3100005, z: -0.23001099}
  m_LocalScale: {x: 0.74107176, y: 2.4702394, z: 0.7410719}
  m_Children: []
  m_Father: {fileID: 3954774578235739431}
  m_RootOrder: 0
  m_LocalEulerAnglesHint: {x: 0, y: 0, z: 0}
--- !u!114 &8831674506453175018
MonoBehaviour:
  m_ObjectHideFlags: 0
  m_CorrespondingSourceObject: {fileID: 0}
  m_PrefabInstance: {fileID: 0}
  m_PrefabAsset: {fileID: 0}
  m_GameObject: {fileID: 9013532733035060279}
  m_Enabled: 1
  m_EditorHideFlags: 0
  m_Script: {fileID: 11500000, guid: 8233d90336aea43098adf6dbabd606a2, type: 3}
  m_Name: 
  m_EditorClassIdentifier: 
  m_MeshFormatVersion: 1
  m_Faces:
  - m_Indexes: 000000000100000002000000010000000300000002000000
    m_SmoothingGroup: 1
    m_Uv:
      m_UseWorldSpace: 0
      m_FlipU: 0
      m_FlipV: 0
      m_SwapUV: 0
      m_Fill: 1
      m_Scale: {x: 1, y: 1}
      m_Offset: {x: 0, y: 0}
      m_Rotation: 0
      m_Anchor: 9
    m_Material: {fileID: 0}
    m_SubmeshIndex: 0
    m_ManualUV: 0
    elementGroup: -1
    m_TextureGroup: -1
  - m_Indexes: 040000000500000006000000050000000700000006000000
    m_SmoothingGroup: 1
    m_Uv:
      m_UseWorldSpace: 0
      m_FlipU: 0
      m_FlipV: 0
      m_SwapUV: 0
      m_Fill: 1
      m_Scale: {x: 1, y: 1}
      m_Offset: {x: 0, y: 0}
      m_Rotation: 0
      m_Anchor: 9
    m_Material: {fileID: 0}
    m_SubmeshIndex: 0
    m_ManualUV: 0
    elementGroup: -1
    m_TextureGroup: -1
  - m_Indexes: 08000000090000000a000000090000000b0000000a000000
    m_SmoothingGroup: 1
    m_Uv:
      m_UseWorldSpace: 0
      m_FlipU: 0
      m_FlipV: 0
      m_SwapUV: 0
      m_Fill: 1
      m_Scale: {x: 1, y: 1}
      m_Offset: {x: 0, y: 0}
      m_Rotation: 0
      m_Anchor: 9
    m_Material: {fileID: 0}
    m_SubmeshIndex: 0
    m_ManualUV: 0
    elementGroup: -1
    m_TextureGroup: -1
  - m_Indexes: 0c0000000d0000000e0000000d0000000f0000000e000000
    m_SmoothingGroup: 1
    m_Uv:
      m_UseWorldSpace: 0
      m_FlipU: 0
      m_FlipV: 0
      m_SwapUV: 0
      m_Fill: 1
      m_Scale: {x: 1, y: 1}
      m_Offset: {x: 0, y: 0}
      m_Rotation: 0
      m_Anchor: 9
    m_Material: {fileID: 0}
    m_SubmeshIndex: 0
    m_ManualUV: 0
    elementGroup: -1
    m_TextureGroup: -1
  - m_Indexes: 100000001100000012000000110000001300000012000000
    m_SmoothingGroup: 1
    m_Uv:
      m_UseWorldSpace: 0
      m_FlipU: 0
      m_FlipV: 0
      m_SwapUV: 0
      m_Fill: 1
      m_Scale: {x: 1, y: 1}
      m_Offset: {x: 0, y: 0}
      m_Rotation: 0
      m_Anchor: 9
    m_Material: {fileID: 0}
    m_SubmeshIndex: 0
    m_ManualUV: 0
    elementGroup: -1
    m_TextureGroup: -1
  - m_Indexes: 140000001500000016000000150000001700000016000000
    m_SmoothingGroup: 1
    m_Uv:
      m_UseWorldSpace: 0
      m_FlipU: 0
      m_FlipV: 0
      m_SwapUV: 0
      m_Fill: 1
      m_Scale: {x: 1, y: 1}
      m_Offset: {x: 0, y: 0}
      m_Rotation: 0
      m_Anchor: 9
    m_Material: {fileID: 0}
    m_SubmeshIndex: 0
    m_ManualUV: 0
    elementGroup: -1
    m_TextureGroup: -1
  - m_Indexes: 18000000190000001a000000190000001b0000001a000000
    m_SmoothingGroup: 1
    m_Uv:
      m_UseWorldSpace: 0
      m_FlipU: 0
      m_FlipV: 0
      m_SwapUV: 0
      m_Fill: 1
      m_Scale: {x: 1, y: 1}
      m_Offset: {x: 0, y: 0}
      m_Rotation: 0
      m_Anchor: 9
    m_Material: {fileID: 0}
    m_SubmeshIndex: 0
    m_ManualUV: 0
    elementGroup: -1
    m_TextureGroup: -1
  - m_Indexes: 1c0000001d0000001e0000001d0000001f0000001e000000
    m_SmoothingGroup: 1
    m_Uv:
      m_UseWorldSpace: 0
      m_FlipU: 0
      m_FlipV: 0
      m_SwapUV: 0
      m_Fill: 1
      m_Scale: {x: 1, y: 1}
      m_Offset: {x: 0, y: 0}
      m_Rotation: 0
      m_Anchor: 9
    m_Material: {fileID: 0}
    m_SubmeshIndex: 0
    m_ManualUV: 0
    elementGroup: -1
    m_TextureGroup: -1
  - m_Indexes: 200000002100000022000000210000002300000022000000
    m_SmoothingGroup: 1
    m_Uv:
      m_UseWorldSpace: 0
      m_FlipU: 0
      m_FlipV: 0
      m_SwapUV: 0
      m_Fill: 1
      m_Scale: {x: 1, y: 1}
      m_Offset: {x: 0, y: 0}
      m_Rotation: 0
      m_Anchor: 9
    m_Material: {fileID: 0}
    m_SubmeshIndex: 0
    m_ManualUV: 0
    elementGroup: -1
    m_TextureGroup: -1
  - m_Indexes: 240000002500000026000000250000002700000026000000
    m_SmoothingGroup: 1
    m_Uv:
      m_UseWorldSpace: 0
      m_FlipU: 0
      m_FlipV: 0
      m_SwapUV: 0
      m_Fill: 1
      m_Scale: {x: 1, y: 1}
      m_Offset: {x: 0, y: 0}
      m_Rotation: 0
      m_Anchor: 9
    m_Material: {fileID: 0}
    m_SubmeshIndex: 0
    m_ManualUV: 0
    elementGroup: -1
    m_TextureGroup: -1
  - m_Indexes: 28000000290000002a000000290000002b0000002a000000
    m_SmoothingGroup: 1
    m_Uv:
      m_UseWorldSpace: 0
      m_FlipU: 0
      m_FlipV: 0
      m_SwapUV: 0
      m_Fill: 1
      m_Scale: {x: 1, y: 1}
      m_Offset: {x: 0, y: 0}
      m_Rotation: 0
      m_Anchor: 9
    m_Material: {fileID: 0}
    m_SubmeshIndex: 0
    m_ManualUV: 0
    elementGroup: -1
    m_TextureGroup: -1
  - m_Indexes: 2c0000002d0000002e0000002d0000002f0000002e000000
    m_SmoothingGroup: 1
    m_Uv:
      m_UseWorldSpace: 0
      m_FlipU: 0
      m_FlipV: 0
      m_SwapUV: 0
      m_Fill: 1
      m_Scale: {x: 1, y: 1}
      m_Offset: {x: 0, y: 0}
      m_Rotation: 0
      m_Anchor: 9
    m_Material: {fileID: 0}
    m_SubmeshIndex: 0
    m_ManualUV: 0
    elementGroup: -1
    m_TextureGroup: -1
  - m_Indexes: 320000003100000030000000
    m_SmoothingGroup: 0
    m_Uv:
      m_UseWorldSpace: 0
      m_FlipU: 0
      m_FlipV: 0
      m_SwapUV: 0
      m_Fill: 1
      m_Scale: {x: 1, y: 1}
      m_Offset: {x: 0, y: 0}
      m_Rotation: 0
      m_Anchor: 9
    m_Material: {fileID: 2100000, guid: 31321ba15b8f8eb4c954353edc038b1d, type: 2}
    m_SubmeshIndex: 0
    m_ManualUV: 0
    elementGroup: 0
    m_TextureGroup: -1
  - m_Indexes: 380000003700000036000000
    m_SmoothingGroup: 0
    m_Uv:
      m_UseWorldSpace: 0
      m_FlipU: 0
      m_FlipV: 0
      m_SwapUV: 0
      m_Fill: 1
      m_Scale: {x: 1, y: 1}
      m_Offset: {x: 0, y: 0}
      m_Rotation: 0
      m_Anchor: 9
    m_Material: {fileID: 2100000, guid: 31321ba15b8f8eb4c954353edc038b1d, type: 2}
    m_SubmeshIndex: 0
    m_ManualUV: 0
    elementGroup: 0
    m_TextureGroup: -1
  - m_Indexes: 3e0000003d0000003c000000
    m_SmoothingGroup: 0
    m_Uv:
      m_UseWorldSpace: 0
      m_FlipU: 0
      m_FlipV: 0
      m_SwapUV: 0
      m_Fill: 1
      m_Scale: {x: 1, y: 1}
      m_Offset: {x: 0, y: 0}
      m_Rotation: 0
      m_Anchor: 9
    m_Material: {fileID: 2100000, guid: 31321ba15b8f8eb4c954353edc038b1d, type: 2}
    m_SubmeshIndex: 0
    m_ManualUV: 0
    elementGroup: 0
    m_TextureGroup: -1
  - m_Indexes: 440000004300000042000000
    m_SmoothingGroup: 0
    m_Uv:
      m_UseWorldSpace: 0
      m_FlipU: 0
      m_FlipV: 0
      m_SwapUV: 0
      m_Fill: 1
      m_Scale: {x: 1, y: 1}
      m_Offset: {x: 0, y: 0}
      m_Rotation: 0
      m_Anchor: 9
    m_Material: {fileID: 2100000, guid: 31321ba15b8f8eb4c954353edc038b1d, type: 2}
    m_SubmeshIndex: 0
    m_ManualUV: 0
    elementGroup: 0
    m_TextureGroup: -1
  - m_Indexes: 4a0000004900000048000000
    m_SmoothingGroup: 0
    m_Uv:
      m_UseWorldSpace: 0
      m_FlipU: 0
      m_FlipV: 0
      m_SwapUV: 0
      m_Fill: 1
      m_Scale: {x: 1, y: 1}
      m_Offset: {x: 0, y: 0}
      m_Rotation: 0
      m_Anchor: 9
    m_Material: {fileID: 2100000, guid: 31321ba15b8f8eb4c954353edc038b1d, type: 2}
    m_SubmeshIndex: 0
    m_ManualUV: 0
    elementGroup: 0
    m_TextureGroup: -1
  - m_Indexes: 500000004f0000004e000000
    m_SmoothingGroup: 0
    m_Uv:
      m_UseWorldSpace: 0
      m_FlipU: 0
      m_FlipV: 0
      m_SwapUV: 0
      m_Fill: 1
      m_Scale: {x: 1, y: 1}
      m_Offset: {x: 0, y: 0}
      m_Rotation: 0
      m_Anchor: 9
    m_Material: {fileID: 2100000, guid: 31321ba15b8f8eb4c954353edc038b1d, type: 2}
    m_SubmeshIndex: 0
    m_ManualUV: 0
    elementGroup: 0
    m_TextureGroup: -1
  - m_Indexes: 560000005500000054000000
    m_SmoothingGroup: 0
    m_Uv:
      m_UseWorldSpace: 0
      m_FlipU: 0
      m_FlipV: 0
      m_SwapUV: 0
      m_Fill: 1
      m_Scale: {x: 1, y: 1}
      m_Offset: {x: 0, y: 0}
      m_Rotation: 0
      m_Anchor: 9
    m_Material: {fileID: 2100000, guid: 31321ba15b8f8eb4c954353edc038b1d, type: 2}
    m_SubmeshIndex: 0
    m_ManualUV: 0
    elementGroup: 0
    m_TextureGroup: -1
  - m_Indexes: 5c0000005b0000005a000000
    m_SmoothingGroup: 0
    m_Uv:
      m_UseWorldSpace: 0
      m_FlipU: 0
      m_FlipV: 0
      m_SwapUV: 0
      m_Fill: 1
      m_Scale: {x: 1, y: 1}
      m_Offset: {x: 0, y: 0}
      m_Rotation: 0
      m_Anchor: 9
    m_Material: {fileID: 2100000, guid: 31321ba15b8f8eb4c954353edc038b1d, type: 2}
    m_SubmeshIndex: 0
    m_ManualUV: 0
    elementGroup: 0
    m_TextureGroup: -1
  - m_Indexes: 620000006100000060000000
    m_SmoothingGroup: 0
    m_Uv:
      m_UseWorldSpace: 0
      m_FlipU: 0
      m_FlipV: 0
      m_SwapUV: 0
      m_Fill: 1
      m_Scale: {x: 1, y: 1}
      m_Offset: {x: 0, y: 0}
      m_Rotation: 0
      m_Anchor: 9
    m_Material: {fileID: 2100000, guid: 31321ba15b8f8eb4c954353edc038b1d, type: 2}
    m_SubmeshIndex: 0
    m_ManualUV: 0
    elementGroup: 0
    m_TextureGroup: -1
  - m_Indexes: 680000006700000066000000
    m_SmoothingGroup: 0
    m_Uv:
      m_UseWorldSpace: 0
      m_FlipU: 0
      m_FlipV: 0
      m_SwapUV: 0
      m_Fill: 1
      m_Scale: {x: 1, y: 1}
      m_Offset: {x: 0, y: 0}
      m_Rotation: 0
      m_Anchor: 9
    m_Material: {fileID: 2100000, guid: 31321ba15b8f8eb4c954353edc038b1d, type: 2}
    m_SubmeshIndex: 0
    m_ManualUV: 0
    elementGroup: 0
    m_TextureGroup: -1
  - m_Indexes: 6e0000006d0000006c000000
    m_SmoothingGroup: 0
    m_Uv:
      m_UseWorldSpace: 0
      m_FlipU: 0
      m_FlipV: 0
      m_SwapUV: 0
      m_Fill: 1
      m_Scale: {x: 1, y: 1}
      m_Offset: {x: 0, y: 0}
      m_Rotation: 0
      m_Anchor: 9
    m_Material: {fileID: 2100000, guid: 31321ba15b8f8eb4c954353edc038b1d, type: 2}
    m_SubmeshIndex: 0
    m_ManualUV: 0
    elementGroup: 0
    m_TextureGroup: -1
  - m_Indexes: 740000007300000072000000
    m_SmoothingGroup: 0
    m_Uv:
      m_UseWorldSpace: 0
      m_FlipU: 0
      m_FlipV: 0
      m_SwapUV: 0
      m_Fill: 1
      m_Scale: {x: 1, y: 1}
      m_Offset: {x: 0, y: 0}
      m_Rotation: 0
      m_Anchor: 9
    m_Material: {fileID: 2100000, guid: 31321ba15b8f8eb4c954353edc038b1d, type: 2}
    m_SubmeshIndex: 0
    m_ManualUV: 0
    elementGroup: 0
    m_TextureGroup: -1
  - m_Indexes: 330000003400000035000000
    m_SmoothingGroup: 0
    m_Uv:
      m_UseWorldSpace: 0
      m_FlipU: 0
      m_FlipV: 0
      m_SwapUV: 0
      m_Fill: 1
      m_Scale: {x: 1, y: 1}
      m_Offset: {x: 0, y: 0}
      m_Rotation: 0
      m_Anchor: 9
    m_Material: {fileID: 2100000, guid: 31321ba15b8f8eb4c954353edc038b1d, type: 2}
    m_SubmeshIndex: 0
    m_ManualUV: 0
    elementGroup: 0
    m_TextureGroup: -1
  - m_Indexes: 390000003a0000003b000000
    m_SmoothingGroup: 0
    m_Uv:
      m_UseWorldSpace: 0
      m_FlipU: 0
      m_FlipV: 0
      m_SwapUV: 0
      m_Fill: 1
      m_Scale: {x: 1, y: 1}
      m_Offset: {x: 0, y: 0}
      m_Rotation: 0
      m_Anchor: 9
    m_Material: {fileID: 2100000, guid: 31321ba15b8f8eb4c954353edc038b1d, type: 2}
    m_SubmeshIndex: 0
    m_ManualUV: 0
    elementGroup: 0
    m_TextureGroup: -1
  - m_Indexes: 3f0000004000000041000000
    m_SmoothingGroup: 0
    m_Uv:
      m_UseWorldSpace: 0
      m_FlipU: 0
      m_FlipV: 0
      m_SwapUV: 0
      m_Fill: 1
      m_Scale: {x: 1, y: 1}
      m_Offset: {x: 0, y: 0}
      m_Rotation: 0
      m_Anchor: 9
    m_Material: {fileID: 2100000, guid: 31321ba15b8f8eb4c954353edc038b1d, type: 2}
    m_SubmeshIndex: 0
    m_ManualUV: 0
    elementGroup: 0
    m_TextureGroup: -1
  - m_Indexes: 450000004600000047000000
    m_SmoothingGroup: 0
    m_Uv:
      m_UseWorldSpace: 0
      m_FlipU: 0
      m_FlipV: 0
      m_SwapUV: 0
      m_Fill: 1
      m_Scale: {x: 1, y: 1}
      m_Offset: {x: 0, y: 0}
      m_Rotation: 0
      m_Anchor: 9
    m_Material: {fileID: 2100000, guid: 31321ba15b8f8eb4c954353edc038b1d, type: 2}
    m_SubmeshIndex: 0
    m_ManualUV: 0
    elementGroup: 0
    m_TextureGroup: -1
  - m_Indexes: 4b0000004c0000004d000000
    m_SmoothingGroup: 0
    m_Uv:
      m_UseWorldSpace: 0
      m_FlipU: 0
      m_FlipV: 0
      m_SwapUV: 0
      m_Fill: 1
      m_Scale: {x: 1, y: 1}
      m_Offset: {x: 0, y: 0}
      m_Rotation: 0
      m_Anchor: 9
    m_Material: {fileID: 2100000, guid: 31321ba15b8f8eb4c954353edc038b1d, type: 2}
    m_SubmeshIndex: 0
    m_ManualUV: 0
    elementGroup: 0
    m_TextureGroup: -1
  - m_Indexes: 510000005200000053000000
    m_SmoothingGroup: 0
    m_Uv:
      m_UseWorldSpace: 0
      m_FlipU: 0
      m_FlipV: 0
      m_SwapUV: 0
      m_Fill: 1
      m_Scale: {x: 1, y: 1}
      m_Offset: {x: 0, y: 0}
      m_Rotation: 0
      m_Anchor: 9
    m_Material: {fileID: 2100000, guid: 31321ba15b8f8eb4c954353edc038b1d, type: 2}
    m_SubmeshIndex: 0
    m_ManualUV: 0
    elementGroup: 0
    m_TextureGroup: -1
  - m_Indexes: 570000005800000059000000
    m_SmoothingGroup: 0
    m_Uv:
      m_UseWorldSpace: 0
      m_FlipU: 0
      m_FlipV: 0
      m_SwapUV: 0
      m_Fill: 1
      m_Scale: {x: 1, y: 1}
      m_Offset: {x: 0, y: 0}
      m_Rotation: 0
      m_Anchor: 9
    m_Material: {fileID: 2100000, guid: 31321ba15b8f8eb4c954353edc038b1d, type: 2}
    m_SubmeshIndex: 0
    m_ManualUV: 0
    elementGroup: 0
    m_TextureGroup: -1
  - m_Indexes: 5d0000005e0000005f000000
    m_SmoothingGroup: 0
    m_Uv:
      m_UseWorldSpace: 0
      m_FlipU: 0
      m_FlipV: 0
      m_SwapUV: 0
      m_Fill: 1
      m_Scale: {x: 1, y: 1}
      m_Offset: {x: 0, y: 0}
      m_Rotation: 0
      m_Anchor: 9
    m_Material: {fileID: 2100000, guid: 31321ba15b8f8eb4c954353edc038b1d, type: 2}
    m_SubmeshIndex: 0
    m_ManualUV: 0
    elementGroup: 0
    m_TextureGroup: -1
  - m_Indexes: 630000006400000065000000
    m_SmoothingGroup: 0
    m_Uv:
      m_UseWorldSpace: 0
      m_FlipU: 0
      m_FlipV: 0
      m_SwapUV: 0
      m_Fill: 1
      m_Scale: {x: 1, y: 1}
      m_Offset: {x: 0, y: 0}
      m_Rotation: 0
      m_Anchor: 9
    m_Material: {fileID: 2100000, guid: 31321ba15b8f8eb4c954353edc038b1d, type: 2}
    m_SubmeshIndex: 0
    m_ManualUV: 0
    elementGroup: 0
    m_TextureGroup: -1
  - m_Indexes: 690000006a0000006b000000
    m_SmoothingGroup: 0
    m_Uv:
      m_UseWorldSpace: 0
      m_FlipU: 0
      m_FlipV: 0
      m_SwapUV: 0
      m_Fill: 1
      m_Scale: {x: 1, y: 1}
      m_Offset: {x: 0, y: 0}
      m_Rotation: 0
      m_Anchor: 9
    m_Material: {fileID: 2100000, guid: 31321ba15b8f8eb4c954353edc038b1d, type: 2}
    m_SubmeshIndex: 0
    m_ManualUV: 0
    elementGroup: 0
    m_TextureGroup: -1
  - m_Indexes: 6f0000007000000071000000
    m_SmoothingGroup: 0
    m_Uv:
      m_UseWorldSpace: 0
      m_FlipU: 0
      m_FlipV: 0
      m_SwapUV: 0
      m_Fill: 1
      m_Scale: {x: 1, y: 1}
      m_Offset: {x: 0, y: 0}
      m_Rotation: 0
      m_Anchor: 9
    m_Material: {fileID: 2100000, guid: 31321ba15b8f8eb4c954353edc038b1d, type: 2}
    m_SubmeshIndex: 0
    m_ManualUV: 0
    elementGroup: 0
    m_TextureGroup: -1
  - m_Indexes: 750000007600000077000000
    m_SmoothingGroup: 0
    m_Uv:
      m_UseWorldSpace: 0
      m_FlipU: 0
      m_FlipV: 0
      m_SwapUV: 0
      m_Fill: 1
      m_Scale: {x: 1, y: 1}
      m_Offset: {x: 0, y: 0}
      m_Rotation: 0
      m_Anchor: 9
    m_Material: {fileID: 2100000, guid: 31321ba15b8f8eb4c954353edc038b1d, type: 2}
    m_SubmeshIndex: 0
    m_ManualUV: 0
    elementGroup: 0
    m_TextureGroup: -1
  m_SharedVertices:
  - m_Vertices: 000000002e0000003000000074000000
  - m_Vertices: 010000002f0000003300000077000000
  - m_Vertices: 02000000040000003200000036000000
  - m_Vertices: 03000000050000003500000039000000
  - m_Vertices: 0600000008000000380000003c000000
  - m_Vertices: 07000000090000003b0000003f000000
  - m_Vertices: 0a0000000c0000003e00000042000000
  - m_Vertices: 0b0000000d0000004100000045000000
  - m_Vertices: 0e000000100000004400000048000000
  - m_Vertices: 0f00000011000000470000004b000000
  - m_Vertices: 12000000140000004a0000004e000000
  - m_Vertices: 13000000150000004d00000051000000
  - m_Vertices: 16000000180000005000000054000000
  - m_Vertices: 17000000190000005300000057000000
  - m_Vertices: 1a0000001c000000560000005a000000
  - m_Vertices: 1b0000001d000000590000005d000000
  - m_Vertices: 1e000000200000005c00000060000000
  - m_Vertices: 1f000000210000005f00000063000000
  - m_Vertices: 22000000240000006200000066000000
  - m_Vertices: 23000000250000006500000069000000
  - m_Vertices: 2600000028000000680000006c000000
  - m_Vertices: 27000000290000006b0000006f000000
  - m_Vertices: 2a0000002c0000006e00000072000000
  - m_Vertices: 2b0000002d0000007100000075000000
  - m_Vertices: 31000000370000003d00000043000000490000004f000000550000005b00000061000000670000006d00000073000000
  - m_Vertices: 340000003a00000040000000460000004c00000052000000580000005e000000640000006a0000007000000076000000
  m_SharedTextures: []
  m_Positions:
  - {x: 2.0000024, y: -0.5000014, z: 0.00000091393986}
  - {x: 2.0000024, y: 0.49999863, z: 0.00000091393986}
  - {x: 1.7320532, y: -0.5000014, z: 1.000001}
  - {x: 1.7320532, y: 0.49999863, z: 1.000001}
  - {x: 1.7320532, y: -0.5000014, z: 1.000001}
  - {x: 1.7320532, y: 0.49999863, z: 1.000001}
  - {x: 1.0000024, y: -0.5000014, z: 1.7320518}
  - {x: 1.0000024, y: 0.49999863, z: 1.7320518}
  - {x: 1.0000024, y: -0.5000014, z: 1.7320518}
  - {x: 1.0000024, y: 0.49999863, z: 1.7320518}
  - {x: 0.0000023841858, y: -0.5000014, z: 2.000001}
  - {x: 0.0000023841858, y: 0.49999863, z: 2.000001}
  - {x: 0.0000023841858, y: -0.5000014, z: 2.000001}
  - {x: 0.0000023841858, y: 0.49999863, z: 2.000001}
  - {x: -0.9999976, y: -0.5000014, z: 1.7320517}
  - {x: -0.9999976, y: 0.49999863, z: 1.7320517}
  - {x: -0.9999976, y: -0.5000014, z: 1.7320517}
  - {x: -0.9999976, y: 0.49999863, z: 1.7320517}
  - {x: -1.7320485, y: -0.5000014, z: 1.0000011}
  - {x: -1.7320485, y: 0.49999863, z: 1.0000011}
  - {x: -1.7320485, y: -0.5000014, z: 1.0000011}
  - {x: -1.7320485, y: 0.49999863, z: 1.0000011}
  - {x: -1.9999976, y: -0.5000014, z: 0.0000007390943}
  - {x: -1.9999976, y: 0.49999863, z: 0.0000007390943}
  - {x: -1.9999976, y: -0.5000014, z: 0.0000007390943}
  - {x: -1.9999976, y: 0.49999863, z: 0.0000007390943}
  - {x: -1.7320485, y: -0.5000014, z: -0.99999905}
  - {x: -1.7320485, y: 0.49999863, z: -0.99999905}
  - {x: -1.7320485, y: -0.5000014, z: -0.99999905}
  - {x: -1.7320485, y: 0.49999863, z: -0.99999905}
  - {x: -0.9999974, y: -0.5000014, z: -1.73205}
  - {x: -0.9999974, y: 0.49999863, z: -1.73205}
  - {x: -0.9999974, y: -0.5000014, z: -1.73205}
  - {x: -0.9999974, y: 0.49999863, z: -1.73205}
  - {x: 0.0000023841858, y: -0.5000014, z: -1.999999}
  - {x: 0.0000023841858, y: 0.49999863, z: -1.999999}
  - {x: 0.0000023841858, y: -0.5000014, z: -1.999999}
  - {x: 0.0000023841858, y: 0.49999863, z: -1.999999}
  - {x: 1.0000021, y: -0.5000014, z: -1.73205}
  - {x: 1.0000021, y: 0.49999863, z: -1.73205}
  - {x: 1.0000021, y: -0.5000014, z: -1.73205}
  - {x: 1.0000021, y: 0.49999863, z: -1.73205}
  - {x: 1.732053, y: -0.5000014, z: -0.99999946}
  - {x: 1.732053, y: 0.49999863, z: -0.99999946}
  - {x: 1.732053, y: -0.5000014, z: -0.99999946}
  - {x: 1.732053, y: 0.49999863, z: -0.99999946}
  - {x: 2.0000024, y: -0.5000014, z: 0.00000091393986}
  - {x: 2.0000024, y: 0.49999863, z: 0.00000091393986}
  - {x: 2.0000024, y: -0.5000014, z: 0.00000091393986}
  - {x: 0.0000023841858, y: -0.5000014, z: 0.00000091393986}
  - {x: 1.7320532, y: -0.5000014, z: 1.000001}
  - {x: 2.0000024, y: 0.49999863, z: 0.00000091393986}
  - {x: 0.0000023841858, y: 0.49999863, z: 0.00000091393986}
  - {x: 1.7320532, y: 0.49999863, z: 1.000001}
  - {x: 1.7320532, y: -0.5000014, z: 1.000001}
  - {x: 0.0000023841858, y: -0.5000014, z: 0.00000091393986}
  - {x: 1.0000024, y: -0.5000014, z: 1.7320518}
  - {x: 1.7320532, y: 0.49999863, z: 1.000001}
  - {x: 0.0000023841858, y: 0.49999863, z: 0.00000091393986}
  - {x: 1.0000024, y: 0.49999863, z: 1.7320518}
  - {x: 1.0000024, y: -0.5000014, z: 1.7320518}
  - {x: 0.0000023841858, y: -0.5000014, z: 0.00000091393986}
  - {x: 0.0000023841858, y: -0.5000014, z: 2.000001}
  - {x: 1.0000024, y: 0.49999863, z: 1.7320518}
  - {x: 0.0000023841858, y: 0.49999863, z: 0.00000091393986}
  - {x: 0.0000023841858, y: 0.49999863, z: 2.000001}
  - {x: 0.0000023841858, y: -0.5000014, z: 2.000001}
  - {x: 0.0000023841858, y: -0.5000014, z: 0.00000091393986}
  - {x: -0.9999976, y: -0.5000014, z: 1.7320517}
  - {x: 0.0000023841858, y: 0.49999863, z: 2.000001}
  - {x: 0.0000023841858, y: 0.49999863, z: 0.00000091393986}
  - {x: -0.9999976, y: 0.49999863, z: 1.7320517}
  - {x: -0.9999976, y: -0.5000014, z: 1.7320517}
  - {x: 0.0000023841858, y: -0.5000014, z: 0.00000091393986}
  - {x: -1.7320485, y: -0.5000014, z: 1.0000011}
  - {x: -0.9999976, y: 0.49999863, z: 1.7320517}
  - {x: 0.0000023841858, y: 0.49999863, z: 0.00000091393986}
  - {x: -1.7320485, y: 0.49999863, z: 1.0000011}
  - {x: -1.7320485, y: -0.5000014, z: 1.0000011}
  - {x: 0.0000023841858, y: -0.5000014, z: 0.00000091393986}
  - {x: -1.9999976, y: -0.5000014, z: 0.0000007390943}
  - {x: -1.7320485, y: 0.49999863, z: 1.0000011}
  - {x: 0.0000023841858, y: 0.49999863, z: 0.00000091393986}
  - {x: -1.9999976, y: 0.49999863, z: 0.0000007390943}
  - {x: -1.9999976, y: -0.5000014, z: 0.0000007390943}
  - {x: 0.0000023841858, y: -0.5000014, z: 0.00000091393986}
  - {x: -1.7320485, y: -0.5000014, z: -0.99999905}
  - {x: -1.9999976, y: 0.49999863, z: 0.0000007390943}
  - {x: 0.0000023841858, y: 0.49999863, z: 0.00000091393986}
  - {x: -1.7320485, y: 0.49999863, z: -0.99999905}
  - {x: -1.7320485, y: -0.5000014, z: -0.99999905}
  - {x: 0.0000023841858, y: -0.5000014, z: 0.00000091393986}
  - {x: -0.9999974, y: -0.5000014, z: -1.73205}
  - {x: -1.7320485, y: 0.49999863, z: -0.99999905}
  - {x: 0.0000023841858, y: 0.49999863, z: 0.00000091393986}
  - {x: -0.9999974, y: 0.49999863, z: -1.73205}
  - {x: -0.9999974, y: -0.5000014, z: -1.73205}
  - {x: 0.0000023841858, y: -0.5000014, z: 0.00000091393986}
  - {x: 0.0000023841858, y: -0.5000014, z: -1.999999}
  - {x: -0.9999974, y: 0.49999863, z: -1.73205}
  - {x: 0.0000023841858, y: 0.49999863, z: 0.00000091393986}
  - {x: 0.0000023841858, y: 0.49999863, z: -1.999999}
  - {x: 0.0000023841858, y: -0.5000014, z: -1.999999}
  - {x: 0.0000023841858, y: -0.5000014, z: 0.00000091393986}
  - {x: 1.0000021, y: -0.5000014, z: -1.73205}
  - {x: 0.0000023841858, y: 0.49999863, z: -1.999999}
  - {x: 0.0000023841858, y: 0.49999863, z: 0.00000091393986}
  - {x: 1.0000021, y: 0.49999863, z: -1.73205}
  - {x: 1.0000021, y: -0.5000014, z: -1.73205}
  - {x: 0.0000023841858, y: -0.5000014, z: 0.00000091393986}
  - {x: 1.732053, y: -0.5000014, z: -0.99999946}
  - {x: 1.0000021, y: 0.49999863, z: -1.73205}
  - {x: 0.0000023841858, y: 0.49999863, z: 0.00000091393986}
  - {x: 1.732053, y: 0.49999863, z: -0.99999946}
  - {x: 1.732053, y: -0.5000014, z: -0.99999946}
  - {x: 0.0000023841858, y: -0.5000014, z: 0.00000091393986}
  - {x: 2.0000024, y: -0.5000014, z: 0.00000091393986}
  - {x: 1.732053, y: 0.49999863, z: -0.99999946}
  - {x: 0.0000023841858, y: 0.49999863, z: 0.00000091393986}
  - {x: 2.0000024, y: 0.49999863, z: 0.00000091393986}
  m_Textures0:
  - {x: -0.5176379, y: -0.5000014}
  - {x: -0.5176379, y: 0.49999863}
  - {x: 0.5176383, y: -0.5000014}
  - {x: 0.5176383, y: 0.49999863}
  - {x: -0.5176389, y: -0.5000014}
  - {x: -0.5176389, y: 0.49999863}
  - {x: 0.5176373, y: -0.5000014}
  - {x: 0.5176373, y: 0.49999863}
  - {x: -0.5176403, y: -0.5000014}
  - {x: -0.5176403, y: 0.49999863}
  - {x: 0.51763594, y: -0.5000014}
  - {x: 0.51763594, y: 0.49999863}
  - {x: -0.5176407, y: -0.5000014}
  - {x: -0.5176407, y: 0.49999863}
  - {x: 0.51763546, y: -0.5000014}
  - {x: 0.51763546, y: 0.49999863}
  - {x: -0.5176401, y: -0.5000014}
  - {x: -0.5176401, y: 0.49999863}
  - {x: 0.517636, y: -0.5000014}
  - {x: 0.517636, y: 0.49999863}
  - {x: -0.51764005, y: -0.5000014}
  - {x: -0.51764005, y: 0.49999863}
  - {x: 0.5176364, y: -0.5000014}
  - {x: 0.5176364, y: 0.49999863}
  - {x: -0.51763815, y: -0.5000014}
  - {x: -0.51763815, y: 0.49999863}
  - {x: 0.5176378, y: -0.5000014}
  - {x: 0.5176378, y: 0.49999863}
  - {x: -0.5176374, y: -0.5000014}
  - {x: -0.5176374, y: 0.49999863}
  - {x: 0.5176391, y: -0.5000014}
  - {x: 0.5176391, y: 0.49999863}
  - {x: -0.5176358, y: -0.5000014}
  - {x: -0.5176358, y: 0.49999863}
  - {x: 0.51764005, y: -0.5000014}
  - {x: 0.51764005, y: 0.49999863}
  - {x: -0.51763546, y: -0.5000014}
  - {x: -0.51763546, y: 0.49999863}
  - {x: 0.5176404, y: -0.5000014}
  - {x: 0.5176404, y: 0.49999863}
  - {x: -0.5176354, y: -0.5000014}
  - {x: -0.5176354, y: 0.49999863}
  - {x: 0.51764065, y: -0.5000014}
  - {x: 0.51764065, y: 0.49999863}
  - {x: -0.51763695, y: -0.5000014}
  - {x: -0.51763695, y: 0.49999863}
  - {x: 0.5176397, y: -0.5000014}
  - {x: 0.5176397, y: 0.49999863}
  - {x: -2.0000024, y: 0.00000091393986}
  - {x: -0.0000023841858, y: 0.00000091393986}
  - {x: -1.7320532, y: 1.000001}
  - {x: 2.0000024, y: 0.00000091393986}
  - {x: 0.0000023841858, y: 0.00000091393986}
  - {x: 1.7320532, y: 1.000001}
  - {x: -1.7320532, y: 1.000001}
  - {x: -0.0000023841858, y: 0.00000091393986}
  - {x: -1.0000024, y: 1.7320518}
  - {x: 1.7320532, y: 1.000001}
  - {x: 0.0000023841858, y: 0.00000091393986}
  - {x: 1.0000024, y: 1.7320518}
  - {x: -1.0000024, y: 1.7320518}
  - {x: -0.0000023841858, y: 0.00000091393986}
  - {x: -0.0000023841858, y: 2.000001}
  - {x: 1.0000024, y: 1.7320518}
  - {x: 0.0000023841858, y: 0.00000091393986}
  - {x: 0.0000023841858, y: 2.000001}
  - {x: -0.0000023841858, y: 2.000001}
  - {x: -0.0000023841858, y: 0.00000091393986}
  - {x: 0.9999976, y: 1.7320517}
  - {x: 0.0000023841858, y: 2.000001}
  - {x: 0.0000023841858, y: 0.00000091393986}
  - {x: -0.9999976, y: 1.7320517}
  - {x: 0.9999976, y: 1.7320517}
  - {x: -0.0000023841858, y: 0.00000091393986}
  - {x: 1.7320485, y: 1.0000011}
  - {x: -0.9999976, y: 1.7320517}
  - {x: 0.0000023841858, y: 0.00000091393986}
  - {x: -1.7320485, y: 1.0000011}
  - {x: 1.7320485, y: 1.0000011}
  - {x: -0.0000023841858, y: 0.00000091393986}
  - {x: 1.9999976, y: 0.0000007390943}
  - {x: -1.7320485, y: 1.0000011}
  - {x: 0.0000023841858, y: 0.00000091393986}
  - {x: -1.9999976, y: 0.0000007390943}
  - {x: 1.9999976, y: 0.0000007390943}
  - {x: -0.0000023841858, y: 0.00000091393986}
  - {x: 1.7320485, y: -0.99999905}
  - {x: -1.9999976, y: 0.0000007390943}
  - {x: 0.0000023841858, y: 0.00000091393986}
  - {x: -1.7320485, y: -0.99999905}
  - {x: 1.7320485, y: -0.99999905}
  - {x: -0.0000023841858, y: 0.00000091393986}
  - {x: 0.9999974, y: -1.73205}
  - {x: -1.7320485, y: -0.99999905}
  - {x: 0.0000023841858, y: 0.00000091393986}
  - {x: -0.9999974, y: -1.73205}
  - {x: 0.9999974, y: -1.73205}
  - {x: -0.0000023841858, y: 0.00000091393986}
  - {x: -0.0000023841858, y: -1.999999}
  - {x: -0.9999974, y: -1.73205}
  - {x: 0.0000023841858, y: 0.00000091393986}
  - {x: 0.0000023841858, y: -1.999999}
  - {x: -0.0000023841858, y: -1.999999}
  - {x: -0.0000023841858, y: 0.00000091393986}
  - {x: -1.0000021, y: -1.73205}
  - {x: 0.0000023841858, y: -1.999999}
  - {x: 0.0000023841858, y: 0.00000091393986}
  - {x: 1.0000021, y: -1.73205}
  - {x: -1.0000021, y: -1.73205}
  - {x: -0.0000023841858, y: 0.00000091393986}
  - {x: -1.732053, y: -0.99999946}
  - {x: 1.0000021, y: -1.73205}
  - {x: 0.0000023841858, y: 0.00000091393986}
  - {x: 1.732053, y: -0.99999946}
  - {x: -1.732053, y: -0.99999946}
  - {x: -0.0000023841858, y: 0.00000091393986}
  - {x: -2.0000024, y: 0.00000091393986}
  - {x: 1.732053, y: -0.99999946}
  - {x: 0.0000023841858, y: 0.00000091393986}
  - {x: 2.0000024, y: 0.00000091393986}
  m_Textures2: []
  m_Textures3: []
  m_Tangents:
  - {x: 0.000000030853634, y: 0, z: 1, w: -1}
  - {x: 0.000000030853634, y: 0, z: 1, w: -1}
  - {x: -0.5, y: 0, z: 0.86602545, w: -1}
  - {x: -0.5, y: 0, z: 0.86602545, w: -1}
  - {x: -0.49999997, y: 0, z: 0.86602545, w: -1}
  - {x: -0.49999997, y: 0, z: 0.86602545, w: -1}
  - {x: -0.86602545, y: 0, z: 0.50000006, w: -1}
  - {x: -0.86602545, y: 0, z: 0.50000006, w: -1}
  - {x: -0.86602545, y: 0, z: 0.49999997, w: -1}
  - {x: -0.86602545, y: 0, z: 0.49999997, w: -1}
  - {x: -1, y: 0, z: -0.000000030853634, w: -1}
  - {x: -1, y: 0, z: -0.000000030853634, w: -1}
  - {x: -1, y: 0, z: -0.000000030853634, w: -1}
  - {x: -1, y: 0, z: -0.000000030853634, w: -1}
  - {x: -0.86602545, y: 0, z: -0.4999999, w: -1}
  - {x: -0.86602545, y: 0, z: -0.4999999, w: -1}
  - {x: -0.86602545, y: 0, z: -0.49999994, w: -1}
  - {x: -0.86602545, y: 0, z: -0.49999994, w: -1}
  - {x: -0.49999994, y: 0, z: -0.86602545, w: -1}
  - {x: -0.49999994, y: 0, z: -0.86602545, w: -1}
  - {x: -0.5, y: 0, z: -0.8660254, w: -1}
  - {x: -0.5, y: 0, z: -0.8660254, w: -1}
  - {x: 0.00000009256089, y: 0, z: -1, w: -1}
  - {x: 0.00000009256089, y: 0, z: -1, w: -1}
  - {x: 0.0000000925609, y: 0, z: -1, w: -1}
  - {x: 0.0000000925609, y: 0, z: -1, w: -1}
  - {x: 0.50000006, y: 0, z: -0.8660254, w: -1}
  - {x: 0.50000006, y: 0, z: -0.8660254, w: -1}
  - {x: 0.50000006, y: 0, z: -0.8660254, w: -1}
  - {x: 0.50000006, y: 0, z: -0.8660254, w: -1}
  - {x: 0.86602545, y: 0, z: -0.49999994, w: -1}
  - {x: 0.86602545, y: 0, z: -0.49999994, w: -1}
  - {x: 0.86602545, y: 0, z: -0.4999999, w: -1}
  - {x: 0.86602545, y: 0, z: -0.4999999, w: -1}
  - {x: 1, y: 0, z: 0, w: -1}
  - {x: 1, y: 0, z: 0, w: -1}
  - {x: 1, y: 0, z: 0, w: -1}
  - {x: 1, y: 0, z: 0, w: -1}
  - {x: 0.8660255, y: 0, z: 0.49999988, w: -1}
  - {x: 0.8660255, y: 0, z: 0.49999988, w: -1}
  - {x: 0.8660255, y: 0, z: 0.49999988, w: -1}
  - {x: 0.8660255, y: 0, z: 0.49999988, w: -1}
  - {x: 0.5000002, y: 0, z: 0.8660253, w: -1}
  - {x: 0.5000002, y: 0, z: 0.8660253, w: -1}
  - {x: 0.5000001, y: 0, z: 0.8660253, w: -1}
  - {x: 0.5000001, y: 0, z: 0.8660253, w: -1}
  - {x: 0, y: 0, z: 1, w: -1}
  - {x: 0, y: 0, z: 1, w: -1}
  - {x: -1, y: 0, z: 0, w: -1}
  - {x: -1, y: 0, z: 0, w: -1}
  - {x: -1, y: 0, z: 0, w: -1}
  - {x: 1, y: 0, z: 0, w: -1}
  - {x: 1, y: 0, z: 0, w: -1}
  - {x: 1, y: 0, z: 0, w: -1}
  - {x: -1, y: 0, z: 0, w: -1}
  - {x: -1, y: 0, z: 0, w: -1}
  - {x: -1, y: 0, z: 0, w: -1}
  - {x: 1, y: 0, z: 0, w: -1}
  - {x: 1, y: 0, z: 0, w: -1}
  - {x: 1, y: 0, z: 0, w: -1}
  - {x: -1, y: 0, z: 0, w: -1}
  - {x: -1, y: 0, z: 0, w: -1}
  - {x: -1, y: 0, z: 0, w: -1}
  - {x: 1, y: 0, z: 0, w: -1}
  - {x: 1, y: 0, z: 0, w: -1}
  - {x: 1, y: 0, z: 0, w: -1}
  - {x: -1, y: 0, z: 0, w: -1}
  - {x: -1, y: 0, z: 0, w: -1}
  - {x: -1, y: 0, z: 0, w: -1}
  - {x: 1, y: 0, z: 0, w: -1}
  - {x: 1, y: 0, z: 0, w: -1}
  - {x: 1, y: 0, z: 0, w: -1}
  - {x: -1, y: 0, z: 0, w: -1}
  - {x: -1, y: 0, z: 0, w: -1}
  - {x: -1, y: 0, z: 0, w: -1}
  - {x: 1, y: 0, z: 0, w: -1}
  - {x: 1, y: 0, z: 0, w: -1}
  - {x: 1, y: 0, z: 0, w: -1}
  - {x: -1, y: 0, z: 0, w: -1}
  - {x: -1, y: 0, z: 0, w: -1}
  - {x: -1, y: 0, z: 0, w: -1}
  - {x: 1, y: 0, z: 0, w: -1}
  - {x: 1, y: 0, z: 0, w: -1}
  - {x: 1, y: 0, z: 0, w: -1}
  - {x: -1, y: 0, z: 0, w: -1}
  - {x: -1, y: 0, z: 0, w: -1}
  - {x: -1, y: 0, z: 0, w: -1}
  - {x: 1, y: 0, z: 0, w: -1}
  - {x: 1, y: 0, z: 0, w: -1}
  - {x: 1, y: 0, z: 0, w: -1}
  - {x: -1, y: 0, z: 0, w: -1}
  - {x: -1, y: 0, z: 0, w: -1}
  - {x: -1, y: 0, z: 0, w: -1}
  - {x: 1, y: 0, z: 0, w: -1}
  - {x: 1, y: 0, z: 0, w: -1}
  - {x: 1, y: 0, z: 0, w: -1}
  - {x: -1, y: 0, z: 0, w: -1}
  - {x: -1, y: 0, z: 0, w: -1}
  - {x: -1, y: 0, z: 0, w: -1}
  - {x: 1, y: 0, z: 0, w: -1}
  - {x: 1, y: 0, z: 0, w: -1}
  - {x: 1, y: 0, z: 0, w: -1}
  - {x: -1, y: 0, z: 0, w: -1}
  - {x: -1, y: 0, z: 0, w: -1}
  - {x: -1, y: 0, z: 0, w: -1}
  - {x: 1, y: 0, z: 0, w: -1}
  - {x: 1, y: 0, z: 0, w: -1}
  - {x: 1, y: 0, z: 0, w: -1}
  - {x: -1, y: 0, z: 0, w: -1}
  - {x: -1, y: 0, z: 0, w: -1}
  - {x: -1, y: 0, z: 0, w: -1}
  - {x: 1, y: 0, z: 0, w: -1}
  - {x: 1, y: 0, z: 0, w: -1}
  - {x: 1, y: 0, z: 0, w: -1}
  - {x: -1, y: 0, z: 0, w: -1}
  - {x: -1, y: 0, z: 0, w: -1}
  - {x: -1, y: 0, z: 0, w: -1}
  - {x: 1, y: 0, z: 0, w: -1}
  - {x: 1, y: 0, z: 0, w: -1}
  - {x: 1, y: 0, z: 0, w: -1}
  m_Colors: []
  m_UnwrapParameters:
    m_HardAngle: 88
    m_PackMargin: 20
    m_AngleError: 8
    m_AreaError: 15
  m_PreserveMeshAssetOnDestroy: 0
  assetGuid: 
  m_Mesh: {fileID: 0}
  m_IsSelectable: 1
  m_SelectedFaces: 
  m_SelectedEdges: []
  m_SelectedVertices: 
--- !u!23 &4423372627065640185
MeshRenderer:
  m_ObjectHideFlags: 0
  m_CorrespondingSourceObject: {fileID: 0}
  m_PrefabInstance: {fileID: 0}
  m_PrefabAsset: {fileID: 0}
  m_GameObject: {fileID: 9013532733035060279}
  m_Enabled: 1
  m_CastShadows: 1
  m_ReceiveShadows: 1
  m_DynamicOccludee: 1
  m_MotionVectors: 1
  m_LightProbeUsage: 1
  m_ReflectionProbeUsage: 1
  m_RayTracingMode: 2
  m_RayTraceProcedural: 0
  m_RenderingLayerMask: 1
  m_RendererPriority: 0
  m_Materials:
  - {fileID: 2100000, guid: b7e442b56401d3c42823aa7b905f41f6, type: 2}
  m_StaticBatchInfo:
    firstSubMesh: 0
    subMeshCount: 0
  m_StaticBatchRoot: {fileID: 0}
  m_ProbeAnchor: {fileID: 0}
  m_LightProbeVolumeOverride: {fileID: 0}
  m_ScaleInLightmap: 1
  m_ReceiveGI: 1
  m_PreserveUVs: 0
  m_IgnoreNormalsForChartDetection: 0
  m_ImportantGI: 0
  m_StitchLightmapSeams: 1
  m_SelectedEditorRenderState: 2
  m_MinimumChartSize: 4
  m_AutoUVMaxDistance: 0.5
  m_AutoUVMaxAngle: 89
  m_LightmapParameters: {fileID: 0}
  m_SortingLayerID: 0
  m_SortingLayer: 0
  m_SortingOrder: 0
  m_AdditionalVertexStreams: {fileID: 0}
--- !u!33 &1751865959328787895
MeshFilter:
  m_ObjectHideFlags: 0
  m_CorrespondingSourceObject: {fileID: 0}
  m_PrefabInstance: {fileID: 0}
  m_PrefabAsset: {fileID: 0}
  m_GameObject: {fileID: 9013532733035060279}
  m_Mesh: {fileID: 0}
--- !u!95 &7003903681665066039
Animator:
  serializedVersion: 3
  m_ObjectHideFlags: 0
  m_CorrespondingSourceObject: {fileID: 0}
  m_PrefabInstance: {fileID: 0}
  m_PrefabAsset: {fileID: 0}
  m_GameObject: {fileID: 9013532733035060279}
  m_Enabled: 1
  m_Avatar: {fileID: 0}
  m_Controller: {fileID: 9100000, guid: 6606de2b796c69741843519d7b03be0d, type: 2}
  m_CullingMode: 0
  m_UpdateMode: 0
  m_ApplyRootMotion: 0
  m_LinearVelocityBlending: 0
  m_WarningMessage: 
  m_HasTransformHierarchy: 1
  m_AllowConstantClipSamplingOptimization: 1
  m_KeepAnimatorControllerStateOnDisable: 0
