%YAML 1.1
%TAG !u! tag:unity3d.com,2011:
--- !u!1 &346242204297551546
GameObject:
  m_ObjectHideFlags: 0
  m_CorrespondingSourceObject: {fileID: 0}
  m_PrefabInstance: {fileID: 0}
  m_PrefabAsset: {fileID: 0}
  serializedVersion: 6
  m_Component:
  - component: {fileID: 6908767156212606281}
  - component: {fileID: 2378387709768016657}
  - component: {fileID: 802087641656799285}
  - component: {fileID: 8312063087028317191}
  - component: {fileID: 2585089080524580355}
  - component: {fileID: 2672947030971916825}
  - component: {fileID: 1144466119788659358}
  m_Layer: 0
  m_Name: Simple Cylinder
  m_TagString: Object
  m_Icon: {fileID: 0}
  m_NavMeshLayer: 0
  m_StaticEditorFlags: 0
  m_IsActive: 1
--- !u!4 &6908767156212606281
Transform:
  m_ObjectHideFlags: 0
  m_CorrespondingSourceObject: {fileID: 0}
  m_PrefabInstance: {fileID: 0}
  m_PrefabAsset: {fileID: 0}
  m_GameObject: {fileID: 346242204297551546}
  m_LocalRotation: {x: 0.70710677, y: -0, z: -0, w: 0.7071068}
  m_LocalPosition: {x: -1.5, y: 0.9000001, z: 128.1}
  m_LocalScale: {x: 1, y: 1, z: 1}
  m_Children: []
  m_Father: {fileID: 0}
  m_RootOrder: 0
  m_LocalEulerAnglesHint: {x: 90, y: 0, z: 0}
--- !u!114 &2378387709768016657
MonoBehaviour:
  m_ObjectHideFlags: 0
  m_CorrespondingSourceObject: {fileID: 0}
  m_PrefabInstance: {fileID: 0}
  m_PrefabAsset: {fileID: 0}
  m_GameObject: {fileID: 346242204297551546}
  m_Enabled: 1
  m_EditorHideFlags: 0
  m_Script: {fileID: 11500000, guid: 8233d90336aea43098adf6dbabd606a2, type: 3}
  m_Name: 
  m_EditorClassIdentifier: 
  m_MeshFormatVersion: 1
  m_Faces:
  - m_Indexes: 000000000100000002000000010000000300000002000000
    m_SmoothingGroup: 1
    m_Uv:
      m_UseWorldSpace: 0
      m_FlipU: 0
      m_FlipV: 0
      m_SwapUV: 0
      m_Fill: 1
      m_Scale: {x: 1, y: 1}
      m_Offset: {x: 0, y: 0}
      m_Rotation: 0
      m_Anchor: 9
    m_Material: {fileID: 0}
    m_SubmeshIndex: 0
    m_ManualUV: 0
    elementGroup: -1
    m_TextureGroup: -1
  - m_Indexes: 040000000500000006000000050000000700000006000000
    m_SmoothingGroup: 1
    m_Uv:
      m_UseWorldSpace: 0
      m_FlipU: 0
      m_FlipV: 0
      m_SwapUV: 0
      m_Fill: 1
      m_Scale: {x: 1, y: 1}
      m_Offset: {x: 0, y: 0}
      m_Rotation: 0
      m_Anchor: 9
    m_Material: {fileID: 0}
    m_SubmeshIndex: 0
    m_ManualUV: 0
    elementGroup: -1
    m_TextureGroup: -1
  - m_Indexes: 08000000090000000a000000090000000b0000000a000000
    m_SmoothingGroup: 1
    m_Uv:
      m_UseWorldSpace: 0
      m_FlipU: 0
      m_FlipV: 0
      m_SwapUV: 0
      m_Fill: 1
      m_Scale: {x: 1, y: 1}
      m_Offset: {x: 0, y: 0}
      m_Rotation: 0
      m_Anchor: 9
    m_Material: {fileID: 0}
    m_SubmeshIndex: 0
    m_ManualUV: 0
    elementGroup: -1
    m_TextureGroup: -1
  - m_Indexes: 0c0000000d0000000e0000000d0000000f0000000e000000
    m_SmoothingGroup: 1
    m_Uv:
      m_UseWorldSpace: 0
      m_FlipU: 0
      m_FlipV: 0
      m_SwapUV: 0
      m_Fill: 1
      m_Scale: {x: 1, y: 1}
      m_Offset: {x: 0, y: 0}
      m_Rotation: 0
      m_Anchor: 9
    m_Material: {fileID: 0}
    m_SubmeshIndex: 0
    m_ManualUV: 0
    elementGroup: -1
    m_TextureGroup: -1
  - m_Indexes: 100000001100000012000000110000001300000012000000
    m_SmoothingGroup: 1
    m_Uv:
      m_UseWorldSpace: 0
      m_FlipU: 0
      m_FlipV: 0
      m_SwapUV: 0
      m_Fill: 1
      m_Scale: {x: 1, y: 1}
      m_Offset: {x: 0, y: 0}
      m_Rotation: 0
      m_Anchor: 9
    m_Material: {fileID: 0}
    m_SubmeshIndex: 0
    m_ManualUV: 0
    elementGroup: -1
    m_TextureGroup: -1
  - m_Indexes: 140000001500000016000000150000001700000016000000
    m_SmoothingGroup: 1
    m_Uv:
      m_UseWorldSpace: 0
      m_FlipU: 0
      m_FlipV: 0
      m_SwapUV: 0
      m_Fill: 1
      m_Scale: {x: 1, y: 1}
      m_Offset: {x: 0, y: 0}
      m_Rotation: 0
      m_Anchor: 9
    m_Material: {fileID: 0}
    m_SubmeshIndex: 0
    m_ManualUV: 0
    elementGroup: -1
    m_TextureGroup: -1
  - m_Indexes: 18000000190000001a000000190000001b0000001a000000
    m_SmoothingGroup: 1
    m_Uv:
      m_UseWorldSpace: 0
      m_FlipU: 0
      m_FlipV: 0
      m_SwapUV: 0
      m_Fill: 1
      m_Scale: {x: 1, y: 1}
      m_Offset: {x: 0, y: 0}
      m_Rotation: 0
      m_Anchor: 9
    m_Material: {fileID: 0}
    m_SubmeshIndex: 0
    m_ManualUV: 0
    elementGroup: -1
    m_TextureGroup: -1
  - m_Indexes: 1c0000001d0000001e0000001d0000001f0000001e000000
    m_SmoothingGroup: 1
    m_Uv:
      m_UseWorldSpace: 0
      m_FlipU: 0
      m_FlipV: 0
      m_SwapUV: 0
      m_Fill: 1
      m_Scale: {x: 1, y: 1}
      m_Offset: {x: 0, y: 0}
      m_Rotation: 0
      m_Anchor: 9
    m_Material: {fileID: 0}
    m_SubmeshIndex: 0
    m_ManualUV: 0
    elementGroup: -1
    m_TextureGroup: -1
  - m_Indexes: 200000002100000022000000210000002300000022000000
    m_SmoothingGroup: 1
    m_Uv:
      m_UseWorldSpace: 0
      m_FlipU: 0
      m_FlipV: 0
      m_SwapUV: 0
      m_Fill: 1
      m_Scale: {x: 1, y: 1}
      m_Offset: {x: 0, y: 0}
      m_Rotation: 0
      m_Anchor: 9
    m_Material: {fileID: 0}
    m_SubmeshIndex: 0
    m_ManualUV: 0
    elementGroup: -1
    m_TextureGroup: -1
  - m_Indexes: 240000002500000026000000250000002700000026000000
    m_SmoothingGroup: 1
    m_Uv:
      m_UseWorldSpace: 0
      m_FlipU: 0
      m_FlipV: 0
      m_SwapUV: 0
      m_Fill: 1
      m_Scale: {x: 1, y: 1}
      m_Offset: {x: 0, y: 0}
      m_Rotation: 0
      m_Anchor: 9
    m_Material: {fileID: 0}
    m_SubmeshIndex: 0
    m_ManualUV: 0
    elementGroup: -1
    m_TextureGroup: -1
  - m_Indexes: 28000000290000002a000000290000002b0000002a000000
    m_SmoothingGroup: 1
    m_Uv:
      m_UseWorldSpace: 0
      m_FlipU: 0
      m_FlipV: 0
      m_SwapUV: 0
      m_Fill: 1
      m_Scale: {x: 1, y: 1}
      m_Offset: {x: 0, y: 0}
      m_Rotation: 0
      m_Anchor: 9
    m_Material: {fileID: 0}
    m_SubmeshIndex: 0
    m_ManualUV: 0
    elementGroup: -1
    m_TextureGroup: -1
  - m_Indexes: 2c0000002d0000002e0000002d0000002f0000002e000000
    m_SmoothingGroup: 1
    m_Uv:
      m_UseWorldSpace: 0
      m_FlipU: 0
      m_FlipV: 0
      m_SwapUV: 0
      m_Fill: 1
      m_Scale: {x: 1, y: 1}
      m_Offset: {x: 0, y: 0}
      m_Rotation: 0
      m_Anchor: 9
    m_Material: {fileID: 0}
    m_SubmeshIndex: 0
    m_ManualUV: 0
    elementGroup: -1
    m_TextureGroup: -1
  - m_Indexes: 320000003100000030000000
    m_SmoothingGroup: 0
    m_Uv:
      m_UseWorldSpace: 0
      m_FlipU: 0
      m_FlipV: 0
      m_SwapUV: 0
      m_Fill: 1
      m_Scale: {x: 1, y: 1}
      m_Offset: {x: 0, y: 0}
      m_Rotation: 0
      m_Anchor: 9
    m_Material: {fileID: 2100000, guid: 31321ba15b8f8eb4c954353edc038b1d, type: 2}
    m_SubmeshIndex: 0
    m_ManualUV: 0
    elementGroup: 0
    m_TextureGroup: -1
  - m_Indexes: 380000003700000036000000
    m_SmoothingGroup: 0
    m_Uv:
      m_UseWorldSpace: 0
      m_FlipU: 0
      m_FlipV: 0
      m_SwapUV: 0
      m_Fill: 1
      m_Scale: {x: 1, y: 1}
      m_Offset: {x: 0, y: 0}
      m_Rotation: 0
      m_Anchor: 9
    m_Material: {fileID: 2100000, guid: 31321ba15b8f8eb4c954353edc038b1d, type: 2}
    m_SubmeshIndex: 0
    m_ManualUV: 0
    elementGroup: 0
    m_TextureGroup: -1
  - m_Indexes: 3e0000003d0000003c000000
    m_SmoothingGroup: 0
    m_Uv:
      m_UseWorldSpace: 0
      m_FlipU: 0
      m_FlipV: 0
      m_SwapUV: 0
      m_Fill: 1
      m_Scale: {x: 1, y: 1}
      m_Offset: {x: 0, y: 0}
      m_Rotation: 0
      m_Anchor: 9
    m_Material: {fileID: 2100000, guid: 31321ba15b8f8eb4c954353edc038b1d, type: 2}
    m_SubmeshIndex: 0
    m_ManualUV: 0
    elementGroup: 0
    m_TextureGroup: -1
  - m_Indexes: 440000004300000042000000
    m_SmoothingGroup: 0
    m_Uv:
      m_UseWorldSpace: 0
      m_FlipU: 0
      m_FlipV: 0
      m_SwapUV: 0
      m_Fill: 1
      m_Scale: {x: 1, y: 1}
      m_Offset: {x: 0, y: 0}
      m_Rotation: 0
      m_Anchor: 9
    m_Material: {fileID: 2100000, guid: 31321ba15b8f8eb4c954353edc038b1d, type: 2}
    m_SubmeshIndex: 0
    m_ManualUV: 0
    elementGroup: 0
    m_TextureGroup: -1
  - m_Indexes: 4a0000004900000048000000
    m_SmoothingGroup: 0
    m_Uv:
      m_UseWorldSpace: 0
      m_FlipU: 0
      m_FlipV: 0
      m_SwapUV: 0
      m_Fill: 1
      m_Scale: {x: 1, y: 1}
      m_Offset: {x: 0, y: 0}
      m_Rotation: 0
      m_Anchor: 9
    m_Material: {fileID: 2100000, guid: 31321ba15b8f8eb4c954353edc038b1d, type: 2}
    m_SubmeshIndex: 0
    m_ManualUV: 0
    elementGroup: 0
    m_TextureGroup: -1
  - m_Indexes: 500000004f0000004e000000
    m_SmoothingGroup: 0
    m_Uv:
      m_UseWorldSpace: 0
      m_FlipU: 0
      m_FlipV: 0
      m_SwapUV: 0
      m_Fill: 1
      m_Scale: {x: 1, y: 1}
      m_Offset: {x: 0, y: 0}
      m_Rotation: 0
      m_Anchor: 9
    m_Material: {fileID: 2100000, guid: 31321ba15b8f8eb4c954353edc038b1d, type: 2}
    m_SubmeshIndex: 0
    m_ManualUV: 0
    elementGroup: 0
    m_TextureGroup: -1
  - m_Indexes: 560000005500000054000000
    m_SmoothingGroup: 0
    m_Uv:
      m_UseWorldSpace: 0
      m_FlipU: 0
      m_FlipV: 0
      m_SwapUV: 0
      m_Fill: 1
      m_Scale: {x: 1, y: 1}
      m_Offset: {x: 0, y: 0}
      m_Rotation: 0
      m_Anchor: 9
    m_Material: {fileID: 2100000, guid: 31321ba15b8f8eb4c954353edc038b1d, type: 2}
    m_SubmeshIndex: 0
    m_ManualUV: 0
    elementGroup: 0
    m_TextureGroup: -1
  - m_Indexes: 5c0000005b0000005a000000
    m_SmoothingGroup: 0
    m_Uv:
      m_UseWorldSpace: 0
      m_FlipU: 0
      m_FlipV: 0
      m_SwapUV: 0
      m_Fill: 1
      m_Scale: {x: 1, y: 1}
      m_Offset: {x: 0, y: 0}
      m_Rotation: 0
      m_Anchor: 9
    m_Material: {fileID: 2100000, guid: 31321ba15b8f8eb4c954353edc038b1d, type: 2}
    m_SubmeshIndex: 0
    m_ManualUV: 0
    elementGroup: 0
    m_TextureGroup: -1
  - m_Indexes: 620000006100000060000000
    m_SmoothingGroup: 0
    m_Uv:
      m_UseWorldSpace: 0
      m_FlipU: 0
      m_FlipV: 0
      m_SwapUV: 0
      m_Fill: 1
      m_Scale: {x: 1, y: 1}
      m_Offset: {x: 0, y: 0}
      m_Rotation: 0
      m_Anchor: 9
    m_Material: {fileID: 2100000, guid: 31321ba15b8f8eb4c954353edc038b1d, type: 2}
    m_SubmeshIndex: 0
    m_ManualUV: 0
    elementGroup: 0
    m_TextureGroup: -1
  - m_Indexes: 680000006700000066000000
    m_SmoothingGroup: 0
    m_Uv:
      m_UseWorldSpace: 0
      m_FlipU: 0
      m_FlipV: 0
      m_SwapUV: 0
      m_Fill: 1
      m_Scale: {x: 1, y: 1}
      m_Offset: {x: 0, y: 0}
      m_Rotation: 0
      m_Anchor: 9
    m_Material: {fileID: 2100000, guid: 31321ba15b8f8eb4c954353edc038b1d, type: 2}
    m_SubmeshIndex: 0
    m_ManualUV: 0
    elementGroup: 0
    m_TextureGroup: -1
  - m_Indexes: 6e0000006d0000006c000000
    m_SmoothingGroup: 0
    m_Uv:
      m_UseWorldSpace: 0
      m_FlipU: 0
      m_FlipV: 0
      m_SwapUV: 0
      m_Fill: 1
      m_Scale: {x: 1, y: 1}
      m_Offset: {x: 0, y: 0}
      m_Rotation: 0
      m_Anchor: 9
    m_Material: {fileID: 2100000, guid: 31321ba15b8f8eb4c954353edc038b1d, type: 2}
    m_SubmeshIndex: 0
    m_ManualUV: 0
    elementGroup: 0
    m_TextureGroup: -1
  - m_Indexes: 740000007300000072000000
    m_SmoothingGroup: 0
    m_Uv:
      m_UseWorldSpace: 0
      m_FlipU: 0
      m_FlipV: 0
      m_SwapUV: 0
      m_Fill: 1
      m_Scale: {x: 1, y: 1}
      m_Offset: {x: 0, y: 0}
      m_Rotation: 0
      m_Anchor: 9
    m_Material: {fileID: 2100000, guid: 31321ba15b8f8eb4c954353edc038b1d, type: 2}
    m_SubmeshIndex: 0
    m_ManualUV: 0
    elementGroup: 0
    m_TextureGroup: -1
  - m_Indexes: 330000003400000035000000
    m_SmoothingGroup: 0
    m_Uv:
      m_UseWorldSpace: 0
      m_FlipU: 0
      m_FlipV: 0
      m_SwapUV: 0
      m_Fill: 1
      m_Scale: {x: 1, y: 1}
      m_Offset: {x: 0, y: 0}
      m_Rotation: 0
      m_Anchor: 9
    m_Material: {fileID: 2100000, guid: 31321ba15b8f8eb4c954353edc038b1d, type: 2}
    m_SubmeshIndex: 0
    m_ManualUV: 0
    elementGroup: 0
    m_TextureGroup: -1
  - m_Indexes: 390000003a0000003b000000
    m_SmoothingGroup: 0
    m_Uv:
      m_UseWorldSpace: 0
      m_FlipU: 0
      m_FlipV: 0
      m_SwapUV: 0
      m_Fill: 1
      m_Scale: {x: 1, y: 1}
      m_Offset: {x: 0, y: 0}
      m_Rotation: 0
      m_Anchor: 9
    m_Material: {fileID: 2100000, guid: 31321ba15b8f8eb4c954353edc038b1d, type: 2}
    m_SubmeshIndex: 0
    m_ManualUV: 0
    elementGroup: 0
    m_TextureGroup: -1
  - m_Indexes: 3f0000004000000041000000
    m_SmoothingGroup: 0
    m_Uv:
      m_UseWorldSpace: 0
      m_FlipU: 0
      m_FlipV: 0
      m_SwapUV: 0
      m_Fill: 1
      m_Scale: {x: 1, y: 1}
      m_Offset: {x: 0, y: 0}
      m_Rotation: 0
      m_Anchor: 9
    m_Material: {fileID: 2100000, guid: 31321ba15b8f8eb4c954353edc038b1d, type: 2}
    m_SubmeshIndex: 0
    m_ManualUV: 0
    elementGroup: 0
    m_TextureGroup: -1
  - m_Indexes: 450000004600000047000000
    m_SmoothingGroup: 0
    m_Uv:
      m_UseWorldSpace: 0
      m_FlipU: 0
      m_FlipV: 0
      m_SwapUV: 0
      m_Fill: 1
      m_Scale: {x: 1, y: 1}
      m_Offset: {x: 0, y: 0}
      m_Rotation: 0
      m_Anchor: 9
    m_Material: {fileID: 2100000, guid: 31321ba15b8f8eb4c954353edc038b1d, type: 2}
    m_SubmeshIndex: 0
    m_ManualUV: 0
    elementGroup: 0
    m_TextureGroup: -1
  - m_Indexes: 4b0000004c0000004d000000
    m_SmoothingGroup: 0
    m_Uv:
      m_UseWorldSpace: 0
      m_FlipU: 0
      m_FlipV: 0
      m_SwapUV: 0
      m_Fill: 1
      m_Scale: {x: 1, y: 1}
      m_Offset: {x: 0, y: 0}
      m_Rotation: 0
      m_Anchor: 9
    m_Material: {fileID: 2100000, guid: 31321ba15b8f8eb4c954353edc038b1d, type: 2}
    m_SubmeshIndex: 0
    m_ManualUV: 0
    elementGroup: 0
    m_TextureGroup: -1
  - m_Indexes: 510000005200000053000000
    m_SmoothingGroup: 0
    m_Uv:
      m_UseWorldSpace: 0
      m_FlipU: 0
      m_FlipV: 0
      m_SwapUV: 0
      m_Fill: 1
      m_Scale: {x: 1, y: 1}
      m_Offset: {x: 0, y: 0}
      m_Rotation: 0
      m_Anchor: 9
    m_Material: {fileID: 2100000, guid: 31321ba15b8f8eb4c954353edc038b1d, type: 2}
    m_SubmeshIndex: 0
    m_ManualUV: 0
    elementGroup: 0
    m_TextureGroup: -1
  - m_Indexes: 570000005800000059000000
    m_SmoothingGroup: 0
    m_Uv:
      m_UseWorldSpace: 0
      m_FlipU: 0
      m_FlipV: 0
      m_SwapUV: 0
      m_Fill: 1
      m_Scale: {x: 1, y: 1}
      m_Offset: {x: 0, y: 0}
      m_Rotation: 0
      m_Anchor: 9
    m_Material: {fileID: 2100000, guid: 31321ba15b8f8eb4c954353edc038b1d, type: 2}
    m_SubmeshIndex: 0
    m_ManualUV: 0
    elementGroup: 0
    m_TextureGroup: -1
  - m_Indexes: 5d0000005e0000005f000000
    m_SmoothingGroup: 0
    m_Uv:
      m_UseWorldSpace: 0
      m_FlipU: 0
      m_FlipV: 0
      m_SwapUV: 0
      m_Fill: 1
      m_Scale: {x: 1, y: 1}
      m_Offset: {x: 0, y: 0}
      m_Rotation: 0
      m_Anchor: 9
    m_Material: {fileID: 2100000, guid: 31321ba15b8f8eb4c954353edc038b1d, type: 2}
    m_SubmeshIndex: 0
    m_ManualUV: 0
    elementGroup: 0
    m_TextureGroup: -1
  - m_Indexes: 630000006400000065000000
    m_SmoothingGroup: 0
    m_Uv:
      m_UseWorldSpace: 0
      m_FlipU: 0
      m_FlipV: 0
      m_SwapUV: 0
      m_Fill: 1
      m_Scale: {x: 1, y: 1}
      m_Offset: {x: 0, y: 0}
      m_Rotation: 0
      m_Anchor: 9
    m_Material: {fileID: 2100000, guid: 31321ba15b8f8eb4c954353edc038b1d, type: 2}
    m_SubmeshIndex: 0
    m_ManualUV: 0
    elementGroup: 0
    m_TextureGroup: -1
  - m_Indexes: 690000006a0000006b000000
    m_SmoothingGroup: 0
    m_Uv:
      m_UseWorldSpace: 0
      m_FlipU: 0
      m_FlipV: 0
      m_SwapUV: 0
      m_Fill: 1
      m_Scale: {x: 1, y: 1}
      m_Offset: {x: 0, y: 0}
      m_Rotation: 0
      m_Anchor: 9
    m_Material: {fileID: 2100000, guid: 31321ba15b8f8eb4c954353edc038b1d, type: 2}
    m_SubmeshIndex: 0
    m_ManualUV: 0
    elementGroup: 0
    m_TextureGroup: -1
  - m_Indexes: 6f0000007000000071000000
    m_SmoothingGroup: 0
    m_Uv:
      m_UseWorldSpace: 0
      m_FlipU: 0
      m_FlipV: 0
      m_SwapUV: 0
      m_Fill: 1
      m_Scale: {x: 1, y: 1}
      m_Offset: {x: 0, y: 0}
      m_Rotation: 0
      m_Anchor: 9
    m_Material: {fileID: 2100000, guid: 31321ba15b8f8eb4c954353edc038b1d, type: 2}
    m_SubmeshIndex: 0
    m_ManualUV: 0
    elementGroup: 0
    m_TextureGroup: -1
  - m_Indexes: 750000007600000077000000
    m_SmoothingGroup: 0
    m_Uv:
      m_UseWorldSpace: 0
      m_FlipU: 0
      m_FlipV: 0
      m_SwapUV: 0
      m_Fill: 1
      m_Scale: {x: 1, y: 1}
      m_Offset: {x: 0, y: 0}
      m_Rotation: 0
      m_Anchor: 9
    m_Material: {fileID: 2100000, guid: 31321ba15b8f8eb4c954353edc038b1d, type: 2}
    m_SubmeshIndex: 0
    m_ManualUV: 0
    elementGroup: 0
    m_TextureGroup: -1
  m_SharedVertices:
  - m_Vertices: 000000002e0000003000000074000000
  - m_Vertices: 010000002f0000003300000077000000
  - m_Vertices: 02000000040000003200000036000000
  - m_Vertices: 03000000050000003500000039000000
  - m_Vertices: 0600000008000000380000003c000000
  - m_Vertices: 07000000090000003b0000003f000000
  - m_Vertices: 0a0000000c0000003e00000042000000
  - m_Vertices: 0b0000000d0000004100000045000000
  - m_Vertices: 0e000000100000004400000048000000
  - m_Vertices: 0f00000011000000470000004b000000
  - m_Vertices: 12000000140000004a0000004e000000
  - m_Vertices: 13000000150000004d00000051000000
  - m_Vertices: 16000000180000005000000054000000
  - m_Vertices: 17000000190000005300000057000000
  - m_Vertices: 1a0000001c000000560000005a000000
  - m_Vertices: 1b0000001d000000590000005d000000
  - m_Vertices: 1e000000200000005c00000060000000
  - m_Vertices: 1f000000210000005f00000063000000
  - m_Vertices: 22000000240000006200000066000000
  - m_Vertices: 23000000250000006500000069000000
  - m_Vertices: 2600000028000000680000006c000000
  - m_Vertices: 27000000290000006b0000006f000000
  - m_Vertices: 2a0000002c0000006e00000072000000
  - m_Vertices: 2b0000002d0000007100000075000000
  - m_Vertices: 31000000370000003d00000043000000490000004f000000550000005b00000061000000670000006d00000073000000
  - m_Vertices: 340000003a00000040000000460000004c00000052000000580000005e000000640000006a0000007000000076000000
  m_SharedTextures: []
  m_Positions:
  - {x: 1, y: -1.5000076, z: 0.000000029801868}
  - {x: 1, y: 1.4999924, z: 0.000000029801868}
  - {x: 0.8660254, y: -1.5000076, z: 0.5}
  - {x: 0.8660254, y: 1.4999924, z: 0.5}
  - {x: 0.8660254, y: -1.5000076, z: 0.5}
  - {x: 0.8660254, y: 1.4999924, z: 0.5}
  - {x: 0.5, y: -1.5000076, z: 0.86602545}
  - {x: 0.5, y: 1.4999924, z: 0.86602545}
  - {x: 0.5, y: -1.5000076, z: 0.86602545}
  - {x: 0.5, y: 1.4999924, z: 0.86602545}
  - {x: 0, y: -1.5000076, z: 1}
  - {x: 0, y: 1.4999924, z: 1}
  - {x: 0, y: -1.5000076, z: 1}
  - {x: 0, y: 1.4999924, z: 1}
  - {x: -0.5, y: -1.5000076, z: 0.8660254}
  - {x: -0.5, y: 1.4999924, z: 0.8660254}
  - {x: -0.5, y: -1.5000076, z: 0.8660254}
  - {x: -0.5, y: 1.4999924, z: 0.8660254}
  - {x: -0.86602545, y: -1.5000076, z: 0.50000006}
  - {x: -0.86602545, y: 1.4999924, z: 0.50000006}
  - {x: -0.86602545, y: -1.5000076, z: 0.50000006}
  - {x: -0.86602545, y: 1.4999924, z: 0.50000006}
  - {x: -1, y: -1.5000076, z: -0.00000005762091}
  - {x: -1, y: 1.4999924, z: -0.00000005762091}
  - {x: -1, y: -1.5000076, z: -0.00000005762091}
  - {x: -1, y: 1.4999924, z: -0.00000005762091}
  - {x: -0.86602545, y: -1.5000076, z: -0.49999994}
  - {x: -0.86602545, y: 1.4999924, z: -0.49999994}
  - {x: -0.86602545, y: -1.5000076, z: -0.49999994}
  - {x: -0.86602545, y: 1.4999924, z: -0.49999994}
  - {x: -0.49999988, y: -1.5000076, z: -0.86602545}
  - {x: -0.49999988, y: 1.4999924, z: -0.86602545}
  - {x: -0.49999988, y: -1.5000076, z: -0.86602545}
  - {x: -0.49999988, y: 1.4999924, z: -0.86602545}
  - {x: 0, y: -1.5000076, z: -1}
  - {x: 0, y: 1.4999924, z: -1}
  - {x: 0, y: -1.5000076, z: -1}
  - {x: 0, y: 1.4999924, z: -1}
  - {x: 0.49999988, y: -1.5000076, z: -0.86602545}
  - {x: 0.49999988, y: 1.4999924, z: -0.86602545}
  - {x: 0.49999988, y: -1.5000076, z: -0.86602545}
  - {x: 0.49999988, y: 1.4999924, z: -0.86602545}
  - {x: 0.8660253, y: -1.5000076, z: -0.5000002}
  - {x: 0.8660253, y: 1.4999924, z: -0.5000002}
  - {x: 0.8660253, y: -1.5000076, z: -0.5000002}
  - {x: 0.8660253, y: 1.4999924, z: -0.5000002}
  - {x: 1, y: -1.5000076, z: 0.000000029801868}
  - {x: 1, y: 1.4999924, z: 0.000000029801868}
  - {x: 1, y: -1.5000076, z: 0.000000029801868}
  - {x: 0, y: -1.5000076, z: 0.000000029801868}
  - {x: 0.8660254, y: -1.5000076, z: 0.5}
  - {x: 1, y: 1.4999924, z: 0.000000029801868}
  - {x: 0, y: 1.4999924, z: 0.000000029801868}
  - {x: 0.8660254, y: 1.4999924, z: 0.5}
  - {x: 0.8660254, y: -1.5000076, z: 0.5}
  - {x: 0, y: -1.5000076, z: 0.000000029801868}
  - {x: 0.5, y: -1.5000076, z: 0.86602545}
  - {x: 0.8660254, y: 1.4999924, z: 0.5}
  - {x: 0, y: 1.4999924, z: 0.000000029801868}
  - {x: 0.5, y: 1.4999924, z: 0.86602545}
  - {x: 0.5, y: -1.5000076, z: 0.86602545}
  - {x: 0, y: -1.5000076, z: 0.000000029801868}
  - {x: 0, y: -1.5000076, z: 1}
  - {x: 0.5, y: 1.4999924, z: 0.86602545}
  - {x: 0, y: 1.4999924, z: 0.000000029801868}
  - {x: 0, y: 1.4999924, z: 1}
  - {x: 0, y: -1.5000076, z: 1}
  - {x: 0, y: -1.5000076, z: 0.000000029801868}
  - {x: -0.5, y: -1.5000076, z: 0.8660254}
  - {x: 0, y: 1.4999924, z: 1}
  - {x: 0, y: 1.4999924, z: 0.000000029801868}
  - {x: -0.5, y: 1.4999924, z: 0.8660254}
  - {x: -0.5, y: -1.5000076, z: 0.8660254}
  - {x: 0, y: -1.5000076, z: 0.000000029801868}
  - {x: -0.86602545, y: -1.5000076, z: 0.50000006}
  - {x: -0.5, y: 1.4999924, z: 0.8660254}
  - {x: 0, y: 1.4999924, z: 0.000000029801868}
  - {x: -0.86602545, y: 1.4999924, z: 0.50000006}
  - {x: -0.86602545, y: -1.5000076, z: 0.50000006}
  - {x: 0, y: -1.5000076, z: 0.000000029801868}
  - {x: -1, y: -1.5000076, z: -0.00000005762091}
  - {x: -0.86602545, y: 1.4999924, z: 0.50000006}
  - {x: 0, y: 1.4999924, z: 0.000000029801868}
  - {x: -1, y: 1.4999924, z: -0.00000005762091}
  - {x: -1, y: -1.5000076, z: -0.00000005762091}
  - {x: 0, y: -1.5000076, z: 0.000000029801868}
  - {x: -0.86602545, y: -1.5000076, z: -0.49999994}
  - {x: -1, y: 1.4999924, z: -0.00000005762091}
  - {x: 0, y: 1.4999924, z: 0.000000029801868}
  - {x: -0.86602545, y: 1.4999924, z: -0.49999994}
  - {x: -0.86602545, y: -1.5000076, z: -0.49999994}
  - {x: 0, y: -1.5000076, z: 0.000000029801868}
  - {x: -0.49999988, y: -1.5000076, z: -0.86602545}
  - {x: -0.86602545, y: 1.4999924, z: -0.49999994}
  - {x: 0, y: 1.4999924, z: 0.000000029801868}
  - {x: -0.49999988, y: 1.4999924, z: -0.86602545}
  - {x: -0.49999988, y: -1.5000076, z: -0.86602545}
  - {x: 0, y: -1.5000076, z: 0.000000029801868}
  - {x: 0, y: -1.5000076, z: -1}
  - {x: -0.49999988, y: 1.4999924, z: -0.86602545}
  - {x: 0, y: 1.4999924, z: 0.000000029801868}
  - {x: 0, y: 1.4999924, z: -1}
  - {x: 0, y: -1.5000076, z: -1}
  - {x: 0, y: -1.5000076, z: 0.000000029801868}
  - {x: 0.49999988, y: -1.5000076, z: -0.86602545}
  - {x: 0, y: 1.4999924, z: -1}
  - {x: 0, y: 1.4999924, z: 0.000000029801868}
  - {x: 0.49999988, y: 1.4999924, z: -0.86602545}
  - {x: 0.49999988, y: -1.5000076, z: -0.86602545}
  - {x: 0, y: -1.5000076, z: 0.000000029801868}
  - {x: 0.8660253, y: -1.5000076, z: -0.5000002}
  - {x: 0.49999988, y: 1.4999924, z: -0.86602545}
  - {x: 0, y: 1.4999924, z: 0.000000029801868}
  - {x: 0.8660253, y: 1.4999924, z: -0.5000002}
  - {x: 0.8660253, y: -1.5000076, z: -0.5000002}
  - {x: 0, y: -1.5000076, z: 0.000000029801868}
  - {x: 1, y: -1.5000076, z: 0.000000029801868}
  - {x: 0.8660253, y: 1.4999924, z: -0.5000002}
  - {x: 0, y: 1.4999924, z: 0.000000029801868}
  - {x: 1, y: 1.4999924, z: 0.000000029801868}
  m_Textures0:
  - {x: -0.25881907, y: -1.5000076}
  - {x: -0.25881907, y: 1.4999924}
  - {x: 0.25881898, y: -1.5000076}
  - {x: 0.25881898, y: 1.4999924}
  - {x: -0.25881892, y: -1.5000076}
  - {x: -0.25881892, y: 1.4999924}
  - {x: 0.2588192, y: -1.5000076}
  - {x: 0.2588192, y: 1.4999924}
  - {x: -0.2588191, y: -1.5000076}
  - {x: -0.2588191, y: 1.4999924}
  - {x: 0.25881898, y: -1.5000076}
  - {x: 0.25881898, y: 1.4999924}
  - {x: -0.25881907, y: -1.5000076}
  - {x: -0.25881907, y: 1.4999924}
  - {x: 0.258819, y: -1.5000076}
  - {x: 0.258819, y: 1.4999924}
  - {x: -0.25881886, y: -1.5000076}
  - {x: -0.25881886, y: 1.4999924}
  - {x: 0.2588192, y: -1.5000076}
  - {x: 0.2588192, y: 1.4999924}
  - {x: -0.25881922, y: -1.5000076}
  - {x: -0.25881922, y: 1.4999924}
  - {x: 0.25881898, y: -1.5000076}
  - {x: 0.25881898, y: 1.4999924}
  - {x: -0.25881895, y: -1.5000076}
  - {x: -0.25881895, y: 1.4999924}
  - {x: 0.25881898, y: -1.5000076}
  - {x: 0.25881898, y: 1.4999924}
  - {x: -0.25881916, y: -1.5000076}
  - {x: -0.25881916, y: 1.4999924}
  - {x: 0.25881913, y: -1.5000076}
  - {x: 0.25881913, y: 1.4999924}
  - {x: -0.25881892, y: -1.5000076}
  - {x: -0.25881892, y: 1.4999924}
  - {x: 0.258819, y: -1.5000076}
  - {x: 0.258819, y: 1.4999924}
  - {x: -0.258819, y: -1.5000076}
  - {x: -0.258819, y: 1.4999924}
  - {x: 0.25881892, y: -1.5000076}
  - {x: 0.25881892, y: 1.4999924}
  - {x: -0.25881892, y: -1.5000076}
  - {x: -0.25881892, y: 1.4999924}
  - {x: 0.2588191, y: -1.5000076}
  - {x: 0.2588191, y: 1.4999924}
  - {x: -0.2588192, y: -1.5000076}
  - {x: -0.2588192, y: 1.4999924}
  - {x: 0.25881913, y: -1.5000076}
  - {x: 0.25881913, y: 1.4999924}
  - {x: -1, y: 0.000000029801868}
  - {x: 0, y: 0.000000029801868}
  - {x: -0.8660254, y: 0.5}
  - {x: 1, y: 0.000000029801868}
  - {x: 0, y: 0.000000029801868}
  - {x: 0.8660254, y: 0.5}
  - {x: -0.8660254, y: 0.5}
  - {x: 0, y: 0.000000029801868}
  - {x: -0.5, y: 0.86602545}
  - {x: 0.8660254, y: 0.5}
  - {x: 0, y: 0.000000029801868}
  - {x: 0.5, y: 0.86602545}
  - {x: -0.5, y: 0.86602545}
  - {x: 0, y: 0.000000029801868}
  - {x: 0, y: 1}
  - {x: 0.5, y: 0.86602545}
  - {x: 0, y: 0.000000029801868}
  - {x: 0, y: 1}
  - {x: 0, y: 1}
  - {x: 0, y: 0.000000029801868}
  - {x: 0.5, y: 0.8660254}
  - {x: 0, y: 1}
  - {x: 0, y: 0.000000029801868}
  - {x: -0.5, y: 0.8660254}
  - {x: 0.5, y: 0.8660254}
  - {x: 0, y: 0.000000029801868}
  - {x: 0.86602545, y: 0.50000006}
  - {x: -0.5, y: 0.8660254}
  - {x: 0, y: 0.000000029801868}
  - {x: -0.86602545, y: 0.50000006}
  - {x: 0.86602545, y: 0.50000006}
  - {x: 0, y: 0.000000029801868}
  - {x: 1, y: -0.00000005762091}
  - {x: -0.86602545, y: 0.50000006}
  - {x: 0, y: 0.000000029801868}
  - {x: -1, y: -0.00000005762091}
  - {x: 1, y: -0.00000005762091}
  - {x: 0, y: 0.000000029801868}
  - {x: 0.86602545, y: -0.49999994}
  - {x: -1, y: -0.00000005762091}
  - {x: 0, y: 0.000000029801868}
  - {x: -0.86602545, y: -0.49999994}
  - {x: 0.86602545, y: -0.49999994}
  - {x: 0, y: 0.000000029801868}
  - {x: 0.49999988, y: -0.86602545}
  - {x: -0.86602545, y: -0.49999994}
  - {x: 0, y: 0.000000029801868}
  - {x: -0.49999988, y: -0.86602545}
  - {x: 0.49999988, y: -0.86602545}
  - {x: 0, y: 0.000000029801868}
  - {x: -0, y: -1}
  - {x: -0.49999988, y: -0.86602545}
  - {x: 0, y: 0.000000029801868}
  - {x: 0, y: -1}
  - {x: -0, y: -1}
  - {x: 0, y: 0.000000029801868}
  - {x: -0.49999988, y: -0.86602545}
  - {x: 0, y: -1}
  - {x: 0, y: 0.000000029801868}
  - {x: 0.49999988, y: -0.86602545}
  - {x: -0.49999988, y: -0.86602545}
  - {x: 0, y: 0.000000029801868}
  - {x: -0.8660253, y: -0.5000002}
  - {x: 0.49999988, y: -0.86602545}
  - {x: 0, y: 0.000000029801868}
  - {x: 0.8660253, y: -0.5000002}
  - {x: -0.8660253, y: -0.5000002}
  - {x: 0, y: 0.000000029801868}
  - {x: -1, y: 0.000000029801868}
  - {x: 0.8660253, y: -0.5000002}
  - {x: 0, y: 0.000000029801868}
  - {x: 1, y: 0.000000029801868}
  m_Textures2: []
  m_Textures3: []
  m_Tangents:
  - {x: 0, y: 0, z: 1, w: -1}
  - {x: 0, y: 0, z: 1, w: -1}
  - {x: -0.5, y: 0, z: 0.86602545, w: -1}
  - {x: -0.5, y: 0, z: 0.86602545, w: -1}
  - {x: -0.49999997, y: 0, z: 0.86602545, w: -1}
  - {x: -0.49999997, y: 0, z: 0.86602545, w: -1}
  - {x: -0.8660254, y: 0, z: 0.50000006, w: -1}
  - {x: -0.8660254, y: 0, z: 0.50000006, w: -1}
  - {x: -0.8660254, y: 0, z: 0.50000006, w: -1}
  - {x: -0.8660254, y: 0, z: 0.50000006, w: -1}
  - {x: -1, y: 0, z: -0.00000006170727, w: -1}
  - {x: -1, y: 0, z: -0.00000006170727, w: -1}
  - {x: -1, y: 0, z: -0.00000006170727, w: -1}
  - {x: -1, y: 0, z: -0.00000006170727, w: -1}
  - {x: -0.86602545, y: 0, z: -0.49999988, w: -1}
  - {x: -0.86602545, y: 0, z: -0.49999988, w: -1}
  - {x: -0.86602545, y: 0, z: -0.49999994, w: -1}
  - {x: -0.86602545, y: 0, z: -0.49999994, w: -1}
  - {x: -0.5, y: 0, z: -0.8660254, w: -1}
  - {x: -0.5, y: 0, z: -0.8660254, w: -1}
  - {x: -0.49999997, y: 0, z: -0.86602545, w: -1}
  - {x: -0.49999997, y: 0, z: -0.86602545, w: -1}
  - {x: 0.000000030853634, y: 0, z: -1, w: -1}
  - {x: 0.000000030853634, y: 0, z: -1, w: -1}
  - {x: 0.000000030853634, y: 0, z: -1, w: -1}
  - {x: 0.000000030853634, y: 0, z: -1, w: -1}
  - {x: 0.5, y: 0, z: -0.8660254, w: -1}
  - {x: 0.5, y: 0, z: -0.8660254, w: -1}
  - {x: 0.5, y: 0, z: -0.8660254, w: -1}
  - {x: 0.5, y: 0, z: -0.8660254, w: -1}
  - {x: 0.86602545, y: 0, z: -0.49999997, w: -1}
  - {x: 0.86602545, y: 0, z: -0.49999997, w: -1}
  - {x: 0.8660254, y: 0, z: -0.5, w: -1}
  - {x: 0.8660254, y: 0, z: -0.5, w: -1}
  - {x: 1, y: 0, z: 0, w: -1}
  - {x: 1, y: 0, z: 0, w: -1}
  - {x: 1, y: 0, z: 0, w: -1}
  - {x: 1, y: 0, z: 0, w: -1}
  - {x: 0.8660255, y: 0, z: 0.49999988, w: -1}
  - {x: 0.8660255, y: 0, z: 0.49999988, w: -1}
  - {x: 0.8660255, y: 0, z: 0.49999988, w: -1}
  - {x: 0.8660255, y: 0, z: 0.49999988, w: -1}
  - {x: 0.5000001, y: 0, z: 0.8660253, w: -1}
  - {x: 0.5000001, y: 0, z: 0.8660253, w: -1}
  - {x: 0.5000001, y: 0, z: 0.8660253, w: -1}
  - {x: 0.5000001, y: 0, z: 0.8660253, w: -1}
  - {x: 0, y: 0, z: 1, w: -1}
  - {x: 0, y: 0, z: 1, w: -1}
  - {x: -1, y: 0, z: 0, w: -1}
  - {x: -1, y: 0, z: 0, w: -1}
  - {x: -1, y: 0, z: 0, w: -1}
  - {x: 1, y: 0, z: 0, w: -1}
  - {x: 1, y: 0, z: 0, w: -1}
  - {x: 1, y: 0, z: 0, w: -1}
  - {x: -1, y: 0, z: 0, w: -1}
  - {x: -1, y: 0, z: 0, w: -1}
  - {x: -1, y: 0, z: 0, w: -1}
  - {x: 1, y: 0, z: 0, w: -1}
  - {x: 1, y: 0, z: 0, w: -1}
  - {x: 1, y: 0, z: 0, w: -1}
  - {x: -1, y: 0, z: 0, w: -1}
  - {x: -1, y: 0, z: 0, w: -1}
  - {x: -1, y: 0, z: 0, w: -1}
  - {x: 1, y: 0, z: 0, w: -1}
  - {x: 1, y: 0, z: 0, w: -1}
  - {x: 1, y: 0, z: 0, w: -1}
  - {x: -1, y: 0, z: 0, w: -1}
  - {x: -1, y: 0, z: 0, w: -1}
  - {x: -1, y: 0, z: 0, w: -1}
  - {x: 1, y: 0, z: 0, w: -1}
  - {x: 1, y: 0, z: 0, w: -1}
  - {x: 1, y: 0, z: 0, w: -1}
  - {x: -1, y: 0, z: 0, w: -1}
  - {x: -1, y: 0, z: 0, w: -1}
  - {x: -1, y: 0, z: 0, w: -1}
  - {x: 1, y: 0, z: 0, w: -1}
  - {x: 1, y: 0, z: 0, w: -1}
  - {x: 1, y: 0, z: 0, w: -1}
  - {x: -1, y: 0, z: 0, w: -1}
  - {x: -1, y: 0, z: 0, w: -1}
  - {x: -1, y: 0, z: 0, w: -1}
  - {x: 1, y: 0, z: 0, w: -1}
  - {x: 1, y: 0, z: 0, w: -1}
  - {x: 1, y: 0, z: 0, w: -1}
  - {x: -1, y: 0, z: 0, w: -1}
  - {x: -1, y: 0, z: 0, w: -1}
  - {x: -1, y: 0, z: 0, w: -1}
  - {x: 1, y: 0, z: 0, w: -1}
  - {x: 1, y: 0, z: 0, w: -1}
  - {x: 1, y: 0, z: 0, w: -1}
  - {x: -1, y: 0, z: 0, w: -1}
  - {x: -1, y: 0, z: 0, w: -1}
  - {x: -1, y: 0, z: 0, w: -1}
  - {x: 1, y: 0, z: 0, w: -1}
  - {x: 1, y: 0, z: 0, w: -1}
  - {x: 1, y: 0, z: 0, w: -1}
  - {x: -1, y: 0, z: 0, w: -1}
  - {x: -1, y: 0, z: 0, w: -1}
  - {x: -1, y: 0, z: 0, w: -1}
  - {x: 1, y: 0, z: 0, w: -1}
  - {x: 1, y: 0, z: 0, w: -1}
  - {x: 1, y: 0, z: 0, w: -1}
  - {x: -1, y: 0, z: 0, w: -1}
  - {x: -1, y: 0, z: 0, w: -1}
  - {x: -1, y: 0, z: 0, w: -1}
  - {x: 1, y: 0, z: 0, w: -1}
  - {x: 1, y: 0, z: 0, w: -1}
  - {x: 1, y: 0, z: 0, w: -1}
  - {x: -1, y: 0, z: 0, w: -1}
  - {x: -1, y: 0, z: 0, w: -1}
  - {x: -1, y: 0, z: 0, w: -1}
  - {x: 1, y: 0, z: 0, w: -1}
  - {x: 1, y: 0, z: 0, w: -1}
  - {x: 1, y: 0, z: 0, w: -1}
  - {x: -1, y: 0, z: 0, w: -1}
  - {x: -1, y: 0, z: 0, w: -1}
  - {x: -1, y: 0, z: 0, w: -1}
  - {x: 1, y: 0, z: 0, w: -1}
  - {x: 1, y: 0, z: 0, w: -1}
  - {x: 1, y: 0, z: 0, w: -1}
  m_Colors: []
  m_UnwrapParameters:
    m_HardAngle: 88
    m_PackMargin: 20
    m_AngleError: 8
    m_AreaError: 15
  m_PreserveMeshAssetOnDestroy: 0
  assetGuid: 
  m_Mesh: {fileID: 0}
  m_IsSelectable: 1
  m_SelectedFaces: 
  m_SelectedEdges: []
  m_SelectedVertices: 
--- !u!23 &802087641656799285
MeshRenderer:
  m_ObjectHideFlags: 0
  m_CorrespondingSourceObject: {fileID: 0}
  m_PrefabInstance: {fileID: 0}
  m_PrefabAsset: {fileID: 0}
  m_GameObject: {fileID: 346242204297551546}
  m_Enabled: 1
  m_CastShadows: 1
  m_ReceiveShadows: 1
  m_DynamicOccludee: 1
  m_MotionVectors: 1
  m_LightProbeUsage: 1
  m_ReflectionProbeUsage: 1
  m_RayTracingMode: 2
  m_RayTraceProcedural: 0
  m_RenderingLayerMask: 1
  m_RendererPriority: 0
  m_Materials:
  - {fileID: 2100000, guid: a2b99f2ec04c787458a17f96a686791f, type: 2}
  m_StaticBatchInfo:
    firstSubMesh: 0
    subMeshCount: 0
  m_StaticBatchRoot: {fileID: 0}
  m_ProbeAnchor: {fileID: 0}
  m_LightProbeVolumeOverride: {fileID: 0}
  m_ScaleInLightmap: 1
  m_ReceiveGI: 1
  m_PreserveUVs: 0
  m_IgnoreNormalsForChartDetection: 0
  m_ImportantGI: 0
  m_StitchLightmapSeams: 1
  m_SelectedEditorRenderState: 2
  m_MinimumChartSize: 4
  m_AutoUVMaxDistance: 0.5
  m_AutoUVMaxAngle: 89
  m_LightmapParameters: {fileID: 0}
  m_SortingLayerID: 0
  m_SortingLayer: 0
  m_SortingOrder: 0
  m_AdditionalVertexStreams: {fileID: 0}
--- !u!33 &8312063087028317191
MeshFilter:
  m_ObjectHideFlags: 0
  m_CorrespondingSourceObject: {fileID: 0}
  m_PrefabInstance: {fileID: 0}
  m_PrefabAsset: {fileID: 0}
  m_GameObject: {fileID: 346242204297551546}
  m_Mesh: {fileID: 0}
--- !u!64 &2585089080524580355
MeshCollider:
  m_ObjectHideFlags: 0
  m_CorrespondingSourceObject: {fileID: 0}
  m_PrefabInstance: {fileID: 0}
  m_PrefabAsset: {fileID: 0}
  m_GameObject: {fileID: 346242204297551546}
  m_Material: {fileID: 0}
  m_IsTrigger: 0
  m_Enabled: 1
  serializedVersion: 4
  m_Convex: 1
  m_CookingOptions: 30
  m_Mesh: {fileID: 0}
--- !u!114 &2672947030971916825
MonoBehaviour:
  m_ObjectHideFlags: 0
  m_CorrespondingSourceObject: {fileID: 0}
  m_PrefabInstance: {fileID: 0}
  m_PrefabAsset: {fileID: 0}
  m_GameObject: {fileID: 346242204297551546}
  m_Enabled: 1
  m_EditorHideFlags: 0
  m_Script: {fileID: 11500000, guid: d4d44be2f4721234ea0d607960d52438, type: 3}
  m_Name: 
  m_EditorClassIdentifier: 
  GravityDirection: 4
--- !u!54 &1144466119788659358
Rigidbody:
  m_ObjectHideFlags: 0
  m_CorrespondingSourceObject: {fileID: 0}
  m_PrefabInstance: {fileID: 0}
  m_PrefabAsset: {fileID: 0}
  m_GameObject: {fileID: 346242204297551546}
  serializedVersion: 2
  m_Mass: 1
  m_Drag: 0
  m_AngularDrag: 0.05
  m_UseGravity: 0
  m_IsKinematic: 0
  m_Interpolate: 0
  m_Constraints: 112
  m_CollisionDetection: 0
