%YAML 1.1
%TAG !u! tag:unity3d.com,2011:
--- !u!21 &2100000
Material:
  serializedVersion: 6
  m_ObjectHideFlags: 0
  m_CorrespondingSourceObject: {fileID: 0}
  m_PrefabInstance: {fileID: 0}
  m_PrefabAsset: {fileID: 0}
  m_Name: CheckerMat
  m_Shader: {fileID: -6465566751694194690, guid: 68da36268f779cc4b93279d9c6e888f7, type: 3}
  m_ShaderKeywords: 
  m_LightmapFlags: 4
  m_EnableInstancingVariants: 0
  m_DoubleSidedGI: 0
  m_CustomRenderQueue: -1
  stringTagMap: {}
  disabledShaderPasses: []
  m_SavedProperties:
    serializedVersion: 3
    m_TexEnvs:
    - Texture2D_b9cc2da6feed465199e1986166e59507:
        m_Texture: {fileID: 10309, guid: 0000000000000000f000000000000000, type: 0}
        m_Scale: {x: 1, y: 1}
        m_Offset: {x: 0, y: 0}
    - _SampleTexture2D_f3b5105c7a7640359c66271d08b3cc7b_Texture_1:
        m_Texture: {fileID: 2800000, guid: 2b3b02d65d5a24a20a12332c4125d74b, type: 3}
        m_Scale: {x: 1, y: 1}
        m_Offset: {x: 0, y: 0}
    - unity_Lightmaps:
        m_Texture: {fileID: 0}
        m_Scale: {x: 1, y: 1}
        m_Offset: {x: 0, y: 0}
    - unity_LightmapsInd:
        m_Texture: {fileID: 0}
        m_Scale: {x: 1, y: 1}
        m_Offset: {x: 0, y: 0}
    - unity_ShadowMasks:
        m_Texture: {fileID: 0}
        m_Scale: {x: 1, y: 1}
        m_Offset: {x: 0, y: 0}
    m_Floats:
    - Vector1_5f4df32d788349cf862d18babacfd6f7: 0.1
    - Vector1_80f1af7fd2034fed896a1657744bb33c: 1.5
    - Vector1_84f54a52c1fe47e1a73259e2ad38da90: 1.5
    - _Active: 0
    - _MyTime: 7.58
    - _Speed: 1
    m_Colors:
    - Color_e0f91c50d1454ba995d464615986a179: {r: 0.07983268, g: 0.18116906, b: 0.735849, a: 0}
    - Vector3_4363a51801644c0abb8d0b3fd1b1d2f8: {r: 0.5, g: 0.5, b: 0, a: 0}
    - Vector3_d98a2db820f94008acc02c352e34ba83: {r: 0.5, g: 0.5, b: 0, a: 0}
    - Vector3_fefdbaf44ed3453aa9bf4ce2589586c9: {r: 0.15, g: 0, b: 0, a: 0}
    - _Color: {r: 1, g: 1, b: 1, a: 0}
  m_BuildTextureStacks: []
