%YAML 1.1
%TAG !u! tag:unity3d.com,2011:
--- !u!114 &11400000
MonoBehaviour:
  m_ObjectHideFlags: 0
  m_CorrespondingSourceObject: {fileID: 0}
  m_PrefabInstance: {fileID: 0}
  m_PrefabAsset: {fileID: 0}
  m_GameObject: {fileID: 0}
  m_Enabled: 1
  m_EditorHideFlags: 0
  m_Script: {fileID: 11500000, guid: 2b3280de480477a4e9941eb9c1ff574e, type: 3}
  m_Name: Explanation01
  m_EditorClassIdentifier: 
  Id: Explanation01
  Dialogs:
  - "La flecha <color=red>roja</color> indica en que direcci\xF3n afecta la gravedad
    al objeto al que apunta.La flecha <color=blue>azul</color>, indica la direcci\xF3n
    de la gravedad capturada por la pistola."
  - "Si dispara\r al cubo de su izquierda, cambiar\xE1 su direcci\xF3n de la gravedad
    por la capturada en la pistola. Pruebelo con el cubo de la izquierda"
