%YAML 1.1
%TAG !u! tag:unity3d.com,2011:
--- !u!114 &11400000
MonoBehaviour:
  m_ObjectHideFlags: 0
  m_CorrespondingSourceObject: {fileID: 0}
  m_PrefabInstance: {fileID: 0}
  m_PrefabAsset: {fileID: 0}
  m_GameObject: {fileID: 0}
  m_Enabled: 1
  m_EditorHideFlags: 0
  m_Script: {fileID: 11500000, guid: 2b3280de480477a4e9941eb9c1ff574e, type: 3}
  m_Name: Intro02
  m_EditorClassIdentifier: 
  Id: Intro02
  Dialogs:
  - "Si dispara a un objeto con el <b>disparo secundario</b> (click derecho), puedes
    absorver su direcci\xF3n de la gravedad para despu\xE9s aplicarsela a otro objeto."
