%YAML 1.1
%TAG !u! tag:unity3d.com,2011:
--- !u!21 &2100000
Material:
  serializedVersion: 6
  m_ObjectHideFlags: 0
  m_CorrespondingSourceObject: {fileID: 0}
  m_PrefabInstance: {fileID: 0}
  m_PrefabAsset: {fileID: 0}
  m_Name: ElectricityMat
  m_Shader: {fileID: -6465566751694194690, guid: 98b4eecb6bfd3e845bdca9dc479e7787, type: 3}
  m_ShaderKeywords: 
  m_LightmapFlags: 4
  m_EnableInstancingVariants: 0
  m_DoubleSidedGI: 0
  m_CustomRenderQueue: -1
  stringTagMap: {}
  disabledShaderPasses: []
  m_SavedProperties:
    serializedVersion: 3
    m_TexEnvs:
    - unity_Lightmaps:
        m_Texture: {fileID: 0}
        m_Scale: {x: 1, y: 1}
        m_Offset: {x: 0, y: 0}
    - unity_LightmapsInd:
        m_Texture: {fileID: 0}
        m_Scale: {x: 1, y: 1}
        m_Offset: {x: 0, y: 0}
    - unity_ShadowMasks:
        m_Texture: {fileID: 0}
        m_Scale: {x: 1, y: 1}
        m_Offset: {x: 0, y: 0}
    m_Floats:
    - Vector1_16b59b3cd2984fe09935e10a6c2f2eed: 1
    - Vector1_8c78ce3b5c654c3e83db15082dbb2ae5: 1
    - Vector1_b5a8483def9d40149244f17f532fd030: 2
    - _NoiseScale: 10
    m_Colors:
    - Vector2_35cd21fceb284a39a19735da58ee0899: {r: 0, g: 0.5, b: 0, a: 0}
    - _Color: {r: 1, g: 1, b: 1, a: 1}
  m_BuildTextureStacks: []
